Theta,Alpha,Low_beta,High_beta,Gamma
86.844631,34.206094,22.530883,16.853050,13.409665
81.762688,28.333993,14.294040,6.438523,1.697065
82.509410,29.100705,14.582632,7.216545,2.624621
85.725024,35.488234,22.826418,16.449938,13.309262
80.488252,28.442848,15.043495,7.400946,2.913556
86.844631,34.206094,22.530883,16.853050,13.409665
81.762688,28.333993,14.294040,6.438523,1.697065
82.509410,29.100705,14.582632,7.216545,2.624621
85.725024,35.488234,22.826418,16.449938,13.309262
80.488252,28.442848,15.043495,7.400946,2.913556
86.844631,34.206094,22.530883,16.853050,13.409665
81.762688,28.333993,14.294040,6.438523,1.697065
82.509410,29.100705,14.582632,7.216545,2.624621
85.725024,35.488234,22.826418,16.449938,13.309262
80.488252,28.442848,15.043495,7.400946,2.913556
86.844631,34.206094,22.530883,16.853050,13.409665
81.762688,28.333993,14.294040,6.438523,1.697065
82.509410,29.100705,14.582632,7.216545,2.624621
85.725024,35.488234,22.826418,16.449938,13.309262
80.488252,28.442848,15.043495,7.400946,2.913556
1.679943,1.030444,0.907106,0.607849,0.406619
0.348592,0.329075,0.407493,0.389151,0.277665
0.694891,0.751144,0.290238,0.301764,0.170547
1.246287,1.250343,1.509889,0.503733,0.923212
0.330988,0.415886,0.418909,0.210119,0.149595
1.679943,1.030444,0.907106,0.607849,0.406619
0.348592,0.329075,0.407493,0.389151,0.277665
0.694891,0.751144,0.290238,0.301764,0.170547
1.246287,1.250343,1.509889,0.503733,0.923212
0.330988,0.415886,0.418909,0.210119,0.149595
1.679943,1.030444,0.907106,0.607849,0.406619
0.348592,0.329075,0.407493,0.389151,0.277665
0.694891,0.751144,0.290238,0.301764,0.170547
1.246287,1.250343,1.509889,0.503733,0.923212
0.330988,0.415886,0.418909,0.210119,0.149595
1.679943,1.030444,0.907106,0.607849,0.406619
0.348592,0.329075,0.407493,0.389151,0.277665
0.694891,0.751144,0.290238,0.301764,0.170547
1.246287,1.250343,1.509889,0.503733,0.923212
0.330988,0.415886,0.418909,0.210119,0.149595
3.018750,1.223641,0.682159,0.377369,0.276583
0.610610,0.313094,0.350817,0.415074,0.425740
0.521118,0.686866,0.350157,0.212303,0.176863
1.402952,1.453518,1.727435,0.369490,0.650430
0.425823,0.415177,0.314077,0.140729,0.105156
3.018750,1.223641,0.682159,0.377369,0.276583
0.610610,0.313094,0.350817,0.415074,0.425740
0.521118,0.686866,0.350157,0.212303,0.176863
1.402952,1.453518,1.727435,0.369490,0.650430
0.425823,0.415177,0.314077,0.140729,0.105156
3.018750,1.223641,0.682159,0.377369,0.276583
0.610610,0.313094,0.350817,0.415074,0.425740
0.521118,0.686866,0.350157,0.212303,0.176863
1.402952,1.453518,1.727435,0.369490,0.650430
0.425823,0.415177,0.314077,0.140729,0.105156
3.018750,1.223641,0.682159,0.377369,0.276583
0.610610,0.313094,0.350817,0.415074,0.425740
0.521118,0.686866,0.350157,0.212303,0.176863
1.402952,1.453518,1.727435,0.369490,0.650430
0.425823,0.415177,0.314077,0.140729,0.105156
4.062422,0.833431,0.979724,0.354126,0.206966
0.533160,0.298461,0.270244,0.455426,0.416229
0.399756,0.527605,0.425248,0.164165,0.158575
0.660354,1.389826,1.428422,0.551462,0.630807
0.492762,0.367232,0.387986,0.120263,0.095598
4.062422,0.833431,0.979724,0.354126,0.206966
0.533160,0.298461,0.270244,0.455426,0.416229
0.399756,0.527605,0.425248,0.164165,0.158575
0.660354,1.389826,1.428422,0.551462,0.630807
0.492762,0.367232,0.387986,0.120263,0.095598
4.062422,0.833431,0.979724,0.354126,0.206966
0.533160,0.298461,0.270244,0.455426,0.416229
0.399756,0.527605,0.425248,0.164165,0.158575
0.660354,1.389826,1.428422,0.551462,0.630807
0.492762,0.367232,0.387986,0.120263,0.095598
4.062422,0.833431,0.979724,0.354126,0.206966
0.533160,0.298461,0.270244,0.455426,0.416229
0.399756,0.527605,0.425248,0.164165,0.158575
0.660354,1.389826,1.428422,0.551462,0.630807
0.492762,0.367232,0.387986,0.120263,0.095598
3.595488,1.614648,1.207801,0.569328,0.305568
0.435030,0.425741,0.442734,0.316806,0.268175
0.259350,0.410013,0.183872,0.167109,0.211221
0.384350,2.086476,0.839130,0.867383,0.927982
0.154520,0.595779,0.367545,0.198714,0.147574
3.595488,1.614648,1.207801,0.569328,0.305568
0.435030,0.425741,0.442734,0.316806,0.268175
0.259350,0.410013,0.183872,0.167109,0.211221
0.384350,2.086476,0.839130,0.867383,0.927982
0.154520,0.595779,0.367545,0.198714,0.147574
3.595488,1.614648,1.207801,0.569328,0.305568
0.435030,0.425741,0.442734,0.316806,0.268175
0.259350,0.410013,0.183872,0.167109,0.211221
0.384350,2.086476,0.839130,0.867383,0.927982
0.154520,0.595779,0.367545,0.198714,0.147574
3.595488,1.614648,1.207801,0.569328,0.305568
0.435030,0.425741,0.442734,0.316806,0.268175
0.259350,0.410013,0.183872,0.167109,0.211221
0.384350,2.086476,0.839130,0.867383,0.927982
0.154520,0.595779,0.367545,0.198714,0.147574
3.664931,2.852838,1.174324,0.475216,0.315129
0.430387,0.490931,0.302804,0.450998,0.399073
0.206411,0.426935,0.125890,0.157550,0.198549
0.532284,3.476031,0.731490,0.874505,0.714187
0.208987,1.178331,0.239981,0.194899,0.135769
3.664931,2.852838,1.174324,0.475216,0.315129
0.430387,0.490931,0.302804,0.450998,0.399073
0.206411,0.426935,0.125890,0.157550,0.198549
0.532284,3.476031,0.731490,0.874505,0.714187
0.208987,1.178331,0.239981,0.194899,0.135769
3.664931,2.852838,1.174324,0.475216,0.315129
0.430387,0.490931,0.302804,0.450998,0.399073
0.206411,0.426935,0.125890,0.157550,0.198549
0.532284,3.476031,0.731490,0.874505,0.714187
0.208987,1.178331,0.239981,0.194899,0.135769
3.664931,2.852838,1.174324,0.475216,0.315129
0.430387,0.490931,0.302804,0.450998,0.399073
0.206411,0.426935,0.125890,0.157550,0.198549
0.532284,3.476031,0.731490,0.874505,0.714187
0.208987,1.178331,0.239981,0.194899,0.135769
2.087163,2.217609,0.612993,0.435749,0.217074
0.467666,0.446249,0.289450,0.637921,0.473713
0.288358,0.444004,0.234048,0.196048,0.130840
1.320587,3.024021,1.206152,0.784059,0.602075
0.445134,1.239568,0.150608,0.119975,0.110119
2.087163,2.217609,0.612993,0.435749,0.217074
0.467666,0.446249,0.289450,0.637921,0.473713
0.288358,0.444004,0.234048,0.196048,0.130840
1.320587,3.024021,1.206152,0.784059,0.602075
0.445134,1.239568,0.150608,0.119975,0.110119
2.087163,2.217609,0.612993,0.435749,0.217074
0.467666,0.446249,0.289450,0.637921,0.473713
0.288358,0.444004,0.234048,0.196048,0.130840
1.320587,3.024021,1.206152,0.784059,0.602075
0.445134,1.239568,0.150608,0.119975,0.110119
2.087163,2.217609,0.612993,0.435749,0.217074
0.467666,0.446249,0.289450,0.637921,0.473713
0.288358,0.444004,0.234048,0.196048,0.130840
1.320587,3.024021,1.206152,0.784059,0.602075
0.445134,1.239568,0.150608,0.119975,0.110119
3.237002,2.756288,1.254325,0.376717,0.189624
0.405407,0.437048,0.389036,0.510985,0.429170
0.330970,0.424785,0.327498,0.106583,0.159817
0.892808,2.037642,1.284286,0.670296,0.536035
0.793995,1.089231,0.295506,0.152235,0.095035
3.237002,2.756288,1.254325,0.376717,0.189624
0.405407,0.437048,0.389036,0.510985,0.429170
0.330970,0.424785,0.327498,0.106583,0.159817
0.892808,2.037642,1.284286,0.670296,0.536035
0.793995,1.089231,0.295506,0.152235,0.095035
3.237002,2.756288,1.254325,0.376717,0.189624
0.405407,0.437048,0.389036,0.510985,0.429170
0.330970,0.424785,0.327498,0.106583,0.159817
0.892808,2.037642,1.284286,0.670296,0.536035
0.793995,1.089231,0.295506,0.152235,0.095035
3.237002,2.756288,1.254325,0.376717,0.189624
0.405407,0.437048,0.389036,0.510985,0.429170
0.330970,0.424785,0.327498,0.106583,0.159817
0.892808,2.037642,1.284286,0.670296,0.536035
0.793995,1.089231,0.295506,0.152235,0.095035
2.484717,1.491748,1.524519,0.436925,0.202170
0.167646,0.514768,0.326031,0.377643,0.375261
0.309613,0.547762,0.304446,0.074675,0.112416
0.514721,1.339066,0.522496,0.736179,0.554115
0.635280,0.618021,0.384220,0.232708,0.093787
2.484717,1.491748,1.524519,0.436925,0.202170
0.167646,0.514768,0.326031,0.377643,0.375261
0.309613,0.547762,0.304446,0.074675,0.112416
0.514721,1.339066,0.522496,0.736179,0.554115
0.635280,0.618021,0.384220,0.232708,0.093787
2.484717,1.491748,1.524519,0.436925,0.202170
0.167646,0.514768,0.326031,0.377643,0.375261
0.309613,0.547762,0.304446,0.074675,0.112416
0.514721,1.339066,0.522496,0.736179,0.554115
0.635280,0.618021,0.384220,0.232708,0.093787
2.484717,1.491748,1.524519,0.436925,0.202170
0.167646,0.514768,0.326031,0.377643,0.375261
0.309613,0.547762,0.304446,0.074675,0.112416
0.514721,1.339066,0.522496,0.736179,0.554115
0.635280,0.618021,0.384220,0.232708,0.093787
1.678090,1.676681,0.995302,0.454054,0.188649
0.168661,0.542095,0.299566,0.296959,0.413321
0.485958,0.505329,0.316637,0.082977,0.102713
0.611577,2.285217,0.332207,0.568988,0.783358
0.280291,0.491412,0.415125,0.180124,0.055289
1.678090,1.676681,0.995302,0.454054,0.188649
0.168661,0.542095,0.299566,0.296959,0.413321
0.485958,0.505329,0.316637,0.082977,0.102713
0.611577,2.285217,0.332207,0.568988,0.783358
0.280291,0.491412,0.415125,0.180124,0.055289
1.678090,1.676681,0.995302,0.454054,0.188649
0.168661,0.542095,0.299566,0.296959,0.413321
0.485958,0.505329,0.316637,0.082977,0.102713
0.611577,2.285217,0.332207,0.568988,0.783358
0.280291,0.491412,0.415125,0.180124,0.055289
1.678090,1.676681,0.995302,0.454054,0.188649
0.168661,0.542095,0.299566,0.296959,0.413321
0.485958,0.505329,0.316637,0.082977,0.102713
0.611577,2.285217,0.332207,0.568988,0.783358
0.280291,0.491412,0.415125,0.180124,0.055289
2.040325,1.365841,0.547678,0.499961,0.190007
0.146387,0.307758,0.677868,0.327325,0.318047
0.599094,0.331866,0.200799,0.102603,0.136558
0.594434,1.127476,0.652827,0.633116,0.660543
0.361193,0.320768,0.226294,0.192132,0.061846
2.040325,1.365841,0.547678,0.499961,0.190007
0.146387,0.307758,0.677868,0.327325,0.318047
0.599094,0.331866,0.200799,0.102603,0.136558
0.594434,1.127476,0.652827,0.633116,0.660543
0.361193,0.320768,0.226294,0.192132,0.061846
2.040325,1.365841,0.547678,0.499961,0.190007
0.146387,0.307758,0.677868,0.327325,0.318047
0.599094,0.331866,0.200799,0.102603,0.136558
0.594434,1.127476,0.652827,0.633116,0.660543
0.361193,0.320768,0.226294,0.192132,0.061846
1.877993,1.018890,0.329675,0.488286,0.259826
0.284938,0.142784,0.560165,0.236458,0.318327
0.499840,0.257329,0.121441,0.159752,0.155178
0.434736,0.848651,0.454382,0.549540,0.423700
0.416211,0.423590,0.090114,0.137445,0.077050
1.877993,1.018890,0.329675,0.488286,0.259826
0.284938,0.142784,0.560165,0.236458,0.318327
0.499840,0.257329,0.121441,0.159752,0.155178
0.434736,0.848651,0.454382,0.549540,0.423700
0.416211,0.423590,0.090114,0.137445,0.077050
1.877993,1.018890,0.329675,0.488286,0.259826
0.284938,0.142784,0.560165,0.236458,0.318327
0.499840,0.257329,0.121441,0.159752,0.155178
0.434736,0.848651,0.454382,0.549540,0.423700
0.416211,0.423590,0.090114,0.137445,0.077050
1.877993,1.018890,0.329675,0.488286,0.259826
0.284938,0.142784,0.560165,0.236458,0.318327
0.499840,0.257329,0.121441,0.159752,0.155178
0.434736,0.848651,0.454382,0.549540,0.423700
0.416211,0.423590,0.090114,0.137445,0.077050
1.903287,1.820980,0.627975,0.429821,0.205992
0.399628,0.144711,0.293215,0.226008,0.334530
0.443022,0.354517,0.118838,0.202510,0.107345
0.430448,1.912024,0.847925,0.419431,0.298267
0.427840,0.902778,0.139047,0.110254,0.078538
1.903287,1.820980,0.627975,0.429821,0.205992
0.399628,0.144711,0.293215,0.226008,0.334530
0.443022,0.354517,0.118838,0.202510,0.107345
0.430448,1.912024,0.847925,0.419431,0.298267
0.427840,0.902778,0.139047,0.110254,0.078538
1.903287,1.820980,0.627975,0.429821,0.205992
0.399628,0.144711,0.293215,0.226008,0.334530
0.443022,0.354517,0.118838,0.202510,0.107345
0.430448,1.912024,0.847925,0.419431,0.298267
0.427840,0.902778,0.139047,0.110254,0.078538
1.903287,1.820980,0.627975,0.429821,0.205992
0.399628,0.144711,0.293215,0.226008,0.334530
0.443022,0.354517,0.118838,0.202510,0.107345
0.430448,1.912024,0.847925,0.419431,0.298267
0.427840,0.902778,0.139047,0.110254,0.078538
1.944396,3.964122,0.978104,0.434407,0.155178
0.370555,0.294001,0.285833,0.384410,0.384839
0.253223,0.715466,0.167099,0.185537,0.103389
0.435019,3.256270,0.925227,0.607404,0.285960
0.264777,1.563827,0.203344,0.149827,0.085744
1.944396,3.964122,0.978104,0.434407,0.155178
0.370555,0.294001,0.285833,0.384410,0.384839
0.253223,0.715466,0.167099,0.185537,0.103389
0.435019,3.256270,0.925227,0.607404,0.285960
0.264777,1.563827,0.203344,0.149827,0.085744
1.944396,3.964122,0.978104,0.434407,0.155178
0.370555,0.294001,0.285833,0.384410,0.384839
0.253223,0.715466,0.167099,0.185537,0.103389
0.435019,3.256270,0.925227,0.607404,0.285960
0.264777,1.563827,0.203344,0.149827,0.085744
1.944396,3.964122,0.978104,0.434407,0.155178
0.370555,0.294001,0.285833,0.384410,0.384839
0.253223,0.715466,0.167099,0.185537,0.103389
0.435019,3.256270,0.925227,0.607404,0.285960
0.264777,1.563827,0.203344,0.149827,0.085744
2.217773,4.583235,1.185106,0.397317,0.196503
0.558953,0.379410,0.344682,0.334004,0.285429
0.673698,0.658802,0.348853,0.243226,0.101281
0.669645,3.207019,0.941832,0.800368,0.390855
0.221105,1.484006,0.487274,0.159415,0.069611
2.217773,4.583235,1.185106,0.397317,0.196503
0.558953,0.379410,0.344682,0.334004,0.285429
0.673698,0.658802,0.348853,0.243226,0.101281
0.669645,3.207019,0.941832,0.800368,0.390855
0.221105,1.484006,0.487274,0.159415,0.069611
2.217773,4.583235,1.185106,0.397317,0.196503
0.558953,0.379410,0.344682,0.334004,0.285429
0.673698,0.658802,0.348853,0.243226,0.101281
0.669645,3.207019,0.941832,0.800368,0.390855
0.221105,1.484006,0.487274,0.159415,0.069611
2.217773,4.583235,1.185106,0.397317,0.196503
0.558953,0.379410,0.344682,0.334004,0.285429
0.673698,0.658802,0.348853,0.243226,0.101281
0.669645,3.207019,0.941832,0.800368,0.390855
0.221105,1.484006,0.487274,0.159415,0.069611
2.445158,2.274566,1.139482,0.437749,0.201995
0.592104,0.353495,0.467818,0.323763,0.343420
0.749006,0.298090,0.377398,0.150065,0.068912
1.165115,1.324447,1.491699,0.533829,0.392691
0.354149,0.873591,0.618288,0.167784,0.055151
2.445158,2.274566,1.139482,0.437749,0.201995
0.592104,0.353495,0.467818,0.323763,0.343420
0.749006,0.298090,0.377398,0.150065,0.068912
1.165115,1.324447,1.491699,0.533829,0.392691
0.354149,0.873591,0.618288,0.167784,0.055151
2.445158,2.274566,1.139482,0.437749,0.201995
0.592104,0.353495,0.467818,0.323763,0.343420
0.749006,0.298090,0.377398,0.150065,0.068912
1.165115,1.324447,1.491699,0.533829,0.392691
0.354149,0.873591,0.618288,0.167784,0.055151
2.445158,2.274566,1.139482,0.437749,0.201995
0.592104,0.353495,0.467818,0.323763,0.343420
0.749006,0.298090,0.377398,0.150065,0.068912
1.165115,1.324447,1.491699,0.533829,0.392691
0.354149,0.873591,0.618288,0.167784,0.055151
1.808573,1.104322,0.768053,0.358625,0.217408
0.443470,0.389299,0.288673,0.428622,0.333770
0.338760,0.412932,0.243559,0.106135,0.088933
0.587289,0.577918,1.105652,0.475451,0.504666
0.202637,0.519124,0.345939,0.138651,0.097702
1.808573,1.104322,0.768053,0.358625,0.217408
0.443470,0.389299,0.288673,0.428622,0.333770
0.338760,0.412932,0.243559,0.106135,0.088933
0.587289,0.577918,1.105652,0.475451,0.504666
0.202637,0.519124,0.345939,0.138651,0.097702
1.808573,1.104322,0.768053,0.358625,0.217408
0.443470,0.389299,0.288673,0.428622,0.333770
0.338760,0.412932,0.243559,0.106135,0.088933
0.587289,0.577918,1.105652,0.475451,0.504666
0.202637,0.519124,0.345939,0.138651,0.097702
1.808573,1.104322,0.768053,0.358625,0.217408
0.443470,0.389299,0.288673,0.428622,0.333770
0.338760,0.412932,0.243559,0.106135,0.088933
0.587289,0.577918,1.105652,0.475451,0.504666
0.202637,0.519124,0.345939,0.138651,0.097702
2.111183,0.888807,0.670651,0.297847,0.207742
0.435919,0.494321,0.313521,0.600592,0.382922
0.431588,0.574909,0.397315,0.156175,0.151151
0.235618,0.446767,0.880708,0.360216,0.738395
0.185487,0.266294,0.233518,0.169233,0.125845
2.111183,0.888807,0.670651,0.297847,0.207742
0.435919,0.494321,0.313521,0.600592,0.382922
0.431588,0.574909,0.397315,0.156175,0.151151
0.235618,0.446767,0.880708,0.360216,0.738395
0.185487,0.266294,0.233518,0.169233,0.125845
2.111183,0.888807,0.670651,0.297847,0.207742
0.435919,0.494321,0.313521,0.600592,0.382922
0.431588,0.574909,0.397315,0.156175,0.151151
0.235618,0.446767,0.880708,0.360216,0.738395
0.185487,0.266294,0.233518,0.169233,0.125845
2.111183,0.888807,0.670651,0.297847,0.207742
0.435919,0.494321,0.313521,0.600592,0.382922
0.431588,0.574909,0.397315,0.156175,0.151151
0.235618,0.446767,0.880708,0.360216,0.738395
0.185487,0.266294,0.233518,0.169233,0.125845
1.980935,1.016900,0.771348,0.147722,0.167910
0.650646,0.330100,0.412177,0.529180,0.421211
0.576155,0.410348,0.390039,0.196137,0.155967
0.531558,0.916567,0.851606,0.352247,0.894318
0.224459,0.299055,0.153909,0.168724,0.085444
1.980935,1.016900,0.771348,0.147722,0.167910
0.650646,0.330100,0.412177,0.529180,0.421211
0.576155,0.410348,0.390039,0.196137,0.155967
0.531558,0.916567,0.851606,0.352247,0.894318
0.224459,0.299055,0.153909,0.168724,0.085444
1.980935,1.016900,0.771348,0.147722,0.167910
0.650646,0.330100,0.412177,0.529180,0.421211
0.576155,0.410348,0.390039,0.196137,0.155967
0.531558,0.916567,0.851606,0.352247,0.894318
0.224459,0.299055,0.153909,0.168724,0.085444
1.980935,1.016900,0.771348,0.147722,0.167910
0.650646,0.330100,0.412177,0.529180,0.421211
0.576155,0.410348,0.390039,0.196137,0.155967
0.531558,0.916567,0.851606,0.352247,0.894318
0.224459,0.299055,0.153909,0.168724,0.085444
1.240105,0.824275,0.553372,0.157978,0.173799
0.465823,0.263398,0.275427,0.449720,0.351756
0.549116,0.501480,0.204761,0.110265,0.104713
0.788433,1.186050,0.581984,0.434775,0.596026
0.238772,0.210159,0.098661,0.125966,0.057243
1.240105,0.824275,0.553372,0.157978,0.173799
0.465823,0.263398,0.275427,0.449720,0.351756
0.549116,0.501480,0.204761,0.110265,0.104713
0.788433,1.186050,0.581984,0.434775,0.596026
0.238772,0.210159,0.098661,0.125966,0.057243
1.240105,0.824275,0.553372,0.157978,0.173799
0.465823,0.263398,0.275427,0.449720,0.351756
0.549116,0.501480,0.204761,0.110265,0.104713
0.788433,1.186050,0.581984,0.434775,0.596026
0.238772,0.210159,0.098661,0.125966,0.057243
1.240105,0.824275,0.553372,0.157978,0.173799
0.465823,0.263398,0.275427,0.449720,0.351756
0.549116,0.501480,0.204761,0.110265,0.104713
0.788433,1.186050,0.581984,0.434775,0.596026
0.238772,0.210159,0.098661,0.125966,0.057243
2.118662,0.543764,0.571007,0.372948,0.205969
0.277403,0.461584,0.552068,0.471407,0.326291
0.316483,0.339985,0.102448,0.147467,0.137822
0.604473,0.869567,0.556279,0.585826,0.473643
0.200518,0.288790,0.268778,0.207331,0.083328
2.118662,0.543764,0.571007,0.372948,0.205969
0.277403,0.461584,0.552068,0.471407,0.326291
0.316483,0.339985,0.102448,0.147467,0.137822
0.604473,0.869567,0.556279,0.585826,0.473643
0.200518,0.288790,0.268778,0.207331,0.083328
2.118662,0.543764,0.571007,0.372948,0.205969
0.277403,0.461584,0.552068,0.471407,0.326291
0.316483,0.339985,0.102448,0.147467,0.137822
0.604473,0.869567,0.556279,0.585826,0.473643
0.200518,0.288790,0.268778,0.207331,0.083328
2.118662,0.543764,0.571007,0.372948,0.205969
0.277403,0.461584,0.552068,0.471407,0.326291
0.316483,0.339985,0.102448,0.147467,0.137822
0.604473,0.869567,0.556279,0.585826,0.473643
0.200518,0.288790,0.268778,0.207331,0.083328
1.946144,1.184666,0.752289,0.473818,0.194006
0.248705,0.528688,0.622447,0.461335,0.336442
0.258569,0.304922,0.049687,0.246703,0.158059
0.588853,0.763759,0.531368,0.837035,0.485865
0.247486,0.521003,0.433807,0.245200,0.102596
1.946144,1.184666,0.752289,0.473818,0.194006
0.248705,0.528688,0.622447,0.461335,0.336442
0.258569,0.304922,0.049687,0.246703,0.158059
0.588853,0.763759,0.531368,0.837035,0.485865
0.247486,0.521003,0.433807,0.245200,0.102596
1.946144,1.184666,0.752289,0.473818,0.194006
0.248705,0.528688,0.622447,0.461335,0.336442
0.258569,0.304922,0.049687,0.246703,0.158059
0.588853,0.763759,0.531368,0.837035,0.485865
0.247486,0.521003,0.433807,0.245200,0.102596
1.946144,1.184666,0.752289,0.473818,0.194006
0.248705,0.528688,0.622447,0.461335,0.336442
0.258569,0.304922,0.049687,0.246703,0.158059
0.588853,0.763759,0.531368,0.837035,0.485865
0.247486,0.521003,0.433807,0.245200,0.102596
2.763263,2.094303,0.346603,0.522290,0.152802
0.510321,0.755488,0.428524,0.567309,0.368506
0.556210,0.630019,0.091231,0.189385,0.124684
0.488162,1.607746,0.450683,0.738095,0.391180
0.532222,0.789088,0.214612,0.212768,0.081635
2.763263,2.094303,0.346603,0.522290,0.152802
0.510321,0.755488,0.428524,0.567309,0.368506
0.556210,0.630019,0.091231,0.189385,0.124684
0.488162,1.607746,0.450683,0.738095,0.391180
0.532222,0.789088,0.214612,0.212768,0.081635
2.763263,2.094303,0.346603,0.522290,0.152802
0.510321,0.755488,0.428524,0.567309,0.368506
0.556210,0.630019,0.091231,0.189385,0.124684
0.488162,1.607746,0.450683,0.738095,0.391180
0.532222,0.789088,0.214612,0.212768,0.081635
2.763263,2.094303,0.346603,0.522290,0.152802
0.510321,0.755488,0.428524,0.567309,0.368506
0.556210,0.630019,0.091231,0.189385,0.124684
0.488162,1.607746,0.450683,0.738095,0.391180
0.532222,0.789088,0.214612,0.212768,0.081635
1.588902,2.583174,0.785611,0.722127,0.230447
0.294469,0.302169,0.269511,0.367026,0.241170
0.303237,0.384474,0.197624,0.190150,0.123428
0.401485,1.421208,0.882952,0.685368,0.567103
0.274525,1.205631,0.293621,0.255521,0.085995
1.588902,2.583174,0.785611,0.722127,0.230447
0.294469,0.302169,0.269511,0.367026,0.241170
0.303237,0.384474,0.197624,0.190150,0.123428
0.401485,1.421208,0.882952,0.685368,0.567103
0.274525,1.205631,0.293621,0.255521,0.085995
1.588902,2.583174,0.785611,0.722127,0.230447
0.294469,0.302169,0.269511,0.367026,0.241170
0.303237,0.384474,0.197624,0.190150,0.123428
0.401485,1.421208,0.882952,0.685368,0.567103
0.274525,1.205631,0.293621,0.255521,0.085995
1.588902,2.583174,0.785611,0.722127,0.230447
0.294469,0.302169,0.269511,0.367026,0.241170
0.303237,0.384474,0.197624,0.190150,0.123428
0.401485,1.421208,0.882952,0.685368,0.567103
0.274525,1.205631,0.293621,0.255521,0.085995
1.901569,3.503346,0.764050,0.737834,0.228796
0.524574,0.249030,0.268285,0.306959,0.311883
0.246706,0.254260,0.215763,0.228335,0.100339
0.703485,2.504450,0.931103,0.927589,0.510641
0.143553,1.752585,0.347776,0.341865,0.101035
1.901569,3.503346,0.764050,0.737834,0.228796
0.524574,0.249030,0.268285,0.306959,0.311883
0.246706,0.254260,0.215763,0.228335,0.100339
0.703485,2.504450,0.931103,0.927589,0.510641
0.143553,1.752585,0.347776,0.341865,0.101035
1.901569,3.503346,0.764050,0.737834,0.228796
0.524574,0.249030,0.268285,0.306959,0.311883
0.246706,0.254260,0.215763,0.228335,0.100339
0.703485,2.504450,0.931103,0.927589,0.510641
0.143553,1.752585,0.347776,0.341865,0.101035
1.901569,3.503346,0.764050,0.737834,0.228796
0.524574,0.249030,0.268285,0.306959,0.311883
0.246706,0.254260,0.215763,0.228335,0.100339
0.703485,2.504450,0.931103,0.927589,0.510641
0.143553,1.752585,0.347776,0.341865,0.101035
1.989617,3.546863,0.265781,0.415171,0.187656
0.533682,0.313155,0.266710,0.252408,0.310972
0.292391,0.238109,0.189000,0.227180,0.101737
0.730620,3.641214,0.486044,0.578285,0.493271
0.133360,1.763839,0.131370,0.167303,0.085940
1.989617,3.546863,0.265781,0.415171,0.187656
0.533682,0.313155,0.266710,0.252408,0.310972
0.292391,0.238109,0.189000,0.227180,0.101737
0.730620,3.641214,0.486044,0.578285,0.493271
0.133360,1.763839,0.131370,0.167303,0.085940
1.989617,3.546863,0.265781,0.415171,0.187656
0.533682,0.313155,0.266710,0.252408,0.310972
0.292391,0.238109,0.189000,0.227180,0.101737
0.730620,3.641214,0.486044,0.578285,0.493271
0.133360,1.763839,0.131370,0.167303,0.085940
1.989617,3.546863,0.265781,0.415171,0.187656
0.533682,0.313155,0.266710,0.252408,0.310972
0.292391,0.238109,0.189000,0.227180,0.101737
0.730620,3.641214,0.486044,0.578285,0.493271
0.133360,1.763839,0.131370,0.167303,0.085940
2.390635,2.133326,0.513551,0.372789,0.215102
0.289553,0.409150,0.193757,0.287444,0.239605
0.282398,0.305648,0.178911,0.162997,0.115432
0.377354,2.683962,0.697553,0.439731,0.446938
0.137948,1.194708,0.196909,0.166078,0.088465
2.390635,2.133326,0.513551,0.372789,0.215102
0.289553,0.409150,0.193757,0.287444,0.239605
0.282398,0.305648,0.178911,0.162997,0.115432
0.377354,2.683962,0.697553,0.439731,0.446938
0.137948,1.194708,0.196909,0.166078,0.088465
2.390635,2.133326,0.513551,0.372789,0.215102
0.289553,0.409150,0.193757,0.287444,0.239605
0.282398,0.305648,0.178911,0.162997,0.115432
0.377354,2.683962,0.697553,0.439731,0.446938
0.137948,1.194708,0.196909,0.166078,0.088465
2.390635,2.133326,0.513551,0.372789,0.215102
0.289553,0.409150,0.193757,0.287444,0.239605
0.282398,0.305648,0.178911,0.162997,0.115432
0.377354,2.683962,0.697553,0.439731,0.446938
0.137948,1.194708,0.196909,0.166078,0.088465
1.562618,1.724597,0.981877,0.367691,0.264526
0.244681,0.619826,0.497363,0.312981,0.155299
0.338636,0.518085,0.207347,0.105739,0.103263
0.918875,2.611796,0.760875,0.467123,0.372279
0.270083,1.279024,0.236739,0.146982,0.106279
1.562618,1.724597,0.981877,0.367691,0.264526
0.244681,0.619826,0.497363,0.312981,0.155299
0.338636,0.518085,0.207347,0.105739,0.103263
0.918875,2.611796,0.760875,0.467123,0.372279
0.270083,1.279024,0.236739,0.146982,0.106279
1.562618,1.724597,0.981877,0.367691,0.264526
0.244681,0.619826,0.497363,0.312981,0.155299
0.338636,0.518085,0.207347,0.105739,0.103263
0.918875,2.611796,0.760875,0.467123,0.372279
0.270083,1.279024,0.236739,0.146982,0.106279
1.562618,1.724597,0.981877,0.367691,0.264526
0.244681,0.619826,0.497363,0.312981,0.155299
0.338636,0.518085,0.207347,0.105739,0.103263
0.918875,2.611796,0.760875,0.467123,0.372279
0.270083,1.279024,0.236739,0.146982,0.106279
1.562618,1.724597,0.981877,0.367691,0.264526
0.244681,0.619826,0.497363,0.312981,0.155299
0.338636,0.518085,0.207347,0.105739,0.103263
0.918875,2.611796,0.760875,0.467123,0.372279
0.270083,1.279024,0.236739,0.146982,0.106279
1.562618,1.724597,0.981877,0.367691,0.264526
0.244681,0.619826,0.497363,0.312981,0.155299
0.338636,0.518085,0.207347,0.105739,0.103263
0.918875,2.611796,0.760875,0.467123,0.372279
0.270083,1.279024,0.236739,0.146982,0.106279
9.838643,0.861216,0.689741,0.489736,0.333080
0.284537,0.418149,0.419201,0.387122,0.208524
0.459526,0.526475,0.317936,0.100927,0.113296
1.323566,1.937952,0.512535,0.638073,0.294731
1.727356,0.599800,0.286647,0.115664,0.109424
9.838643,0.861216,0.689741,0.489736,0.333080
0.284537,0.418149,0.419201,0.387122,0.208524
0.459526,0.526475,0.317936,0.100927,0.113296
1.323566,1.937952,0.512535,0.638073,0.294731
1.727356,0.599800,0.286647,0.115664,0.109424
9.838643,0.861216,0.689741,0.489736,0.333080
0.284537,0.418149,0.419201,0.387122,0.208524
0.459526,0.526475,0.317936,0.100927,0.113296
1.323566,1.937952,0.512535,0.638073,0.294731
1.727356,0.599800,0.286647,0.115664,0.109424
9.838643,0.861216,0.689741,0.489736,0.333080
0.284537,0.418149,0.419201,0.387122,0.208524
0.459526,0.526475,0.317936,0.100927,0.113296
1.323566,1.937952,0.512535,0.638073,0.294731
1.727356,0.599800,0.286647,0.115664,0.109424
23.312280,1.443760,0.682580,0.453640,0.231469
0.221673,0.313660,0.272023,0.347260,0.203987
0.442535,0.283735,0.281215,0.100913,0.113013
1.338908,2.067836,0.710843,1.004909,0.382636
4.213353,0.871025,0.265478,0.149142,0.102937
23.312280,1.443760,0.682580,0.453640,0.231469
0.221673,0.313660,0.272023,0.347260,0.203987
0.442535,0.283735,0.281215,0.100913,0.113013
1.338908,2.067836,0.710843,1.004909,0.382636
4.213353,0.871025,0.265478,0.149142,0.102937
23.312280,1.443760,0.682580,0.453640,0.231469
0.221673,0.313660,0.272023,0.347260,0.203987
0.442535,0.283735,0.281215,0.100913,0.113013
1.338908,2.067836,0.710843,1.004909,0.382636
4.213353,0.871025,0.265478,0.149142,0.102937
23.312280,1.443760,0.682580,0.453640,0.231469
0.221673,0.313660,0.272023,0.347260,0.203987
0.442535,0.283735,0.281215,0.100913,0.113013
1.338908,2.067836,0.710843,1.004909,0.382636
4.213353,0.871025,0.265478,0.149142,0.102937
6.171442,1.559485,0.661513,0.312038,0.207781
0.305023,0.247272,0.206002,0.504141,0.251516
0.259952,0.267599,0.229828,0.148805,0.115993
0.702118,3.212045,0.568161,0.619680,0.386909
1.191564,1.054436,0.247249,0.177920,0.095397
6.171442,1.559485,0.661513,0.312038,0.207781
0.305023,0.247272,0.206002,0.504141,0.251516
0.259952,0.267599,0.229828,0.148805,0.115993
0.702118,3.212045,0.568161,0.619680,0.386909
1.191564,1.054436,0.247249,0.177920,0.095397
6.171442,1.559485,0.661513,0.312038,0.207781
0.305023,0.247272,0.206002,0.504141,0.251516
0.259952,0.267599,0.229828,0.148805,0.115993
0.702118,3.212045,0.568161,0.619680,0.386909
1.191564,1.054436,0.247249,0.177920,0.095397
6.171442,1.559485,0.661513,0.312038,0.207781
0.305023,0.247272,0.206002,0.504141,0.251516
0.259952,0.267599,0.229828,0.148805,0.115993
0.702118,3.212045,0.568161,0.619680,0.386909
1.191564,1.054436,0.247249,0.177920,0.095397
1.598999,2.459904,0.648428,0.417260,0.292382
0.911030,0.276296,0.191132,0.390936,0.242982
0.604500,0.260179,0.306553,0.173314,0.156691
0.870871,3.646447,0.858563,0.434545,0.500693
0.182439,1.121697,0.244378,0.168728,0.107438
1.598999,2.459904,0.648428,0.417260,0.292382
0.911030,0.276296,0.191132,0.390936,0.242982
0.604500,0.260179,0.306553,0.173314,0.156691
0.870871,3.646447,0.858563,0.434545,0.500693
0.182439,1.121697,0.244378,0.168728,0.107438
1.598999,2.459904,0.648428,0.417260,0.292382
0.911030,0.276296,0.191132,0.390936,0.242982
0.604500,0.260179,0.306553,0.173314,0.156691
0.870871,3.646447,0.858563,0.434545,0.500693
0.182439,1.121697,0.244378,0.168728,0.107438
1.598999,2.459904,0.648428,0.417260,0.292382
0.911030,0.276296,0.191132,0.390936,0.242982
0.604500,0.260179,0.306553,0.173314,0.156691
0.870871,3.646447,0.858563,0.434545,0.500693
0.182439,1.121697,0.244378,0.168728,0.107438
1.598999,2.459904,0.648428,0.417260,0.292382
0.911030,0.276296,0.191132,0.390936,0.242982
0.604500,0.260179,0.306553,0.173314,0.156691
0.870871,3.646447,0.858563,0.434545,0.500693
0.182439,1.121697,0.244378,0.168728,0.107438
2.726784,4.484765,1.301553,0.272378,0.259350
0.744381,0.493075,0.651487,0.244862,0.179707
0.786230,0.237050,0.489778,0.200488,0.137669
0.808545,4.118726,2.602644,0.423511,0.565923
0.391081,1.889551,0.513507,0.126253,0.115549
2.726784,4.484765,1.301553,0.272378,0.259350
0.744381,0.493075,0.651487,0.244862,0.179707
0.786230,0.237050,0.489778,0.200488,0.137669
0.808545,4.118726,2.602644,0.423511,0.565923
0.391081,1.889551,0.513507,0.126253,0.115549
2.726784,4.484765,1.301553,0.272378,0.259350
0.744381,0.493075,0.651487,0.244862,0.179707
0.786230,0.237050,0.489778,0.200488,0.137669
0.808545,4.118726,2.602644,0.423511,0.565923
0.391081,1.889551,0.513507,0.126253,0.115549
2.726784,4.484765,1.301553,0.272378,0.259350
0.744381,0.493075,0.651487,0.244862,0.179707
0.786230,0.237050,0.489778,0.200488,0.137669
0.808545,4.118726,2.602644,0.423511,0.565923
0.391081,1.889551,0.513507,0.126253,0.115549
2.726784,4.484765,1.301553,0.272378,0.259350
0.744381,0.493075,0.651487,0.244862,0.179707
0.786230,0.237050,0.489778,0.200488,0.137669
0.808545,4.118726,2.602644,0.423511,0.565923
0.391081,1.889551,0.513507,0.126253,0.115549
14.931311,4.653484,2.139113,0.383210,0.265858
0.467113,0.510212,0.577178,0.289895,0.271368
1.046256,0.231605,0.546368,0.187002,0.097336
1.496939,2.498019,2.388989,0.506531,0.299307
2.894366,1.370780,0.543787,0.128628,0.093277
14.931311,4.653484,2.139113,0.383210,0.265858
0.467113,0.510212,0.577178,0.289895,0.271368
1.046256,0.231605,0.546368,0.187002,0.097336
1.496939,2.498019,2.388989,0.506531,0.299307
2.894366,1.370780,0.543787,0.128628,0.093277
14.931311,4.653484,2.139113,0.383210,0.265858
0.467113,0.510212,0.577178,0.289895,0.271368
1.046256,0.231605,0.546368,0.187002,0.097336
1.496939,2.498019,2.388989,0.506531,0.299307
2.894366,1.370780,0.543787,0.128628,0.093277
14.931311,4.653484,2.139113,0.383210,0.265858
0.467113,0.510212,0.577178,0.289895,0.271368
1.046256,0.231605,0.546368,0.187002,0.097336
1.496939,2.498019,2.388989,0.506531,0.299307
2.894366,1.370780,0.543787,0.128628,0.093277
14.931311,4.653484,2.139113,0.383210,0.265858
0.467113,0.510212,0.577178,0.289895,0.271368
1.046256,0.231605,0.546368,0.187002,0.097336
1.496939,2.498019,2.388989,0.506531,0.299307
2.894366,1.370780,0.543787,0.128628,0.093277
14.931311,4.653484,2.139113,0.383210,0.265858
0.467113,0.510212,0.577178,0.289895,0.271368
1.046256,0.231605,0.546368,0.187002,0.097336
1.496939,2.498019,2.388989,0.506531,0.299307
2.894366,1.370780,0.543787,0.128628,0.093277
14.931311,4.653484,2.139113,0.383210,0.265858
0.467113,0.510212,0.577178,0.289895,0.271368
1.046256,0.231605,0.546368,0.187002,0.097336
1.496939,2.498019,2.388989,0.506531,0.299307
2.894366,1.370780,0.543787,0.128628,0.093277
38.845895,5.945826,1.611461,0.455506,0.274205
1.046507,0.273164,0.211622,0.480838,0.548519
1.456625,0.376597,0.476244,0.129800,0.134597
2.085581,1.381947,0.680360,0.262437,0.225130
7.467226,1.181470,0.365543,0.159553,0.103140
38.845895,5.945826,1.611461,0.455506,0.274205
1.046507,0.273164,0.211622,0.480838,0.548519
1.456625,0.376597,0.476244,0.129800,0.134597
2.085581,1.381947,0.680360,0.262437,0.225130
7.467226,1.181470,0.365543,0.159553,0.103140
38.845895,5.945826,1.611461,0.455506,0.274205
1.046507,0.273164,0.211622,0.480838,0.548519
1.456625,0.376597,0.476244,0.129800,0.134597
2.085581,1.381947,0.680360,0.262437,0.225130
7.467226,1.181470,0.365543,0.159553,0.103140
38.845895,5.945826,1.611461,0.455506,0.274205
1.046507,0.273164,0.211622,0.480838,0.548519
1.456625,0.376597,0.476244,0.129800,0.134597
2.085581,1.381947,0.680360,0.262437,0.225130
7.467226,1.181470,0.365543,0.159553,0.103140
39.223560,5.335861,0.926685,0.327657,0.300351
0.738299,0.221734,0.236796,0.372538,0.556624
0.528481,0.453125,0.381089,0.208110,0.160591
1.011067,0.586416,0.600347,0.289751,0.404542
7.390808,1.021388,0.315430,0.147130,0.080681
39.223560,5.335861,0.926685,0.327657,0.300351
0.738299,0.221734,0.236796,0.372538,0.556624
0.528481,0.453125,0.381089,0.208110,0.160591
1.011067,0.586416,0.600347,0.289751,0.404542
7.390808,1.021388,0.315430,0.147130,0.080681
39.223560,5.335861,0.926685,0.327657,0.300351
0.738299,0.221734,0.236796,0.372538,0.556624
0.528481,0.453125,0.381089,0.208110,0.160591
1.011067,0.586416,0.600347,0.289751,0.404542
7.390808,1.021388,0.315430,0.147130,0.080681
