Theta,Alpha,Low_beta,High_beta,Gamma
0.370863,1.041796,1.010104,0.820389,0.142325 
0.261026,0.800951,1.382407,0.592897,0.186203 
0.401553,0.721937,1.123780,0.836409,0.159743 
0.249188,0.479916,0.933020,0.428864,0.218884 
0.388110,0.196098,0.384439,0.243934,0.206843 
0.187299,0.268904,0.370314,0.137362,0.079057 
0.726706,0.736739,0.872872,0.131204,0.131827 
0.687576,0.848268,1.459357,0.525238,0.293574 
0.664650,0.815169,1.966159,0.686850,0.591991 
3.139949,2.770958,2.621754,1.353288,0.282398 
0.554851,1.086503,1.310329,1.197679,0.287945 
0.996316,1.474988,1.303126,0.938163,0.171566 
0.326973,1.249484,2.370965,1.196371,0.269329 
2.430841,1.251307,1.535969,0.926229,0.154153 
0.485634,0.751855,0.871904,0.802841,0.197706 
0.594899,0.450271,0.693650,0.557344,0.139124 
0.655673,0.773658,0.669334,0.862001,0.210614 
0.365670,0.330288,0.472778,0.383960,0.129779 
0.347855,0.353073,0.210014,0.152560,0.210292 
0.773017,0.417674,0.161861,0.143873,0.101015 
0.713743,0.327164,0.250598,0.165648,0.087341 
0.719595,1.623603,0.563755,0.425902,0.157056 
0.919826,2.169642,0.781328,0.491201,0.384870 
2.428689,1.259725,0.923706,0.628387,0.259900 
1.419915,1.526854,1.299421,0.789784,0.394134 
0.886565,0.819773,1.258446,0.730614,0.247675 
1.111660,1.559789,1.219535,0.410468,0.221228 
1.950672,1.109042,1.082377,0.540607,0.199425 
5.071377,4.864087,0.509222,0.340032,0.197788 
1.464946,3.848391,0.628854,0.337857,0.195271 
1.904663,4.221549,0.528790,0.292846,0.219514 
0.702977,1.697091,0.350653,0.216661,0.132364 
0.743101,0.281212,0.496740,0.340265,0.148039 
0.452166,2.059695,0.646704,0.185841,0.095760 
0.430368,1.746609,0.600627,0.138860,0.077271 
0.517353,5.030000,2.505554,0.279371,0.162557 
0.493573,4.471804,3.794528,0.585674,0.272258 
6.236551,5.864121,4.014089,0.701811,0.242933 
3.178653,4.180078,2.386762,0.492963,0.434746 
2.823125,5.531774,0.932275,0.310641,0.304289 
7.406947,4.428631,2.510307,0.352246,0.278394 
5.275156,5.914671,0.856159,0.326626,0.246512 
4.729261,4.178131,0.767617,0.180903,0.120038 
5.815007,3.148652,0.702362,0.160608,0.090130 
1.526751,3.048175,0.552765,0.223385,0.133342 
2.353035,2.087711,0.354313,0.119518,0.072257 
0.666868,0.652680,0.167081,0.216552,0.112728 
0.582759,0.609198,0.186208,0.083684,0.089702 
0.691644,0.244627,0.334354,0.234813,0.123976 
1.665937,1.163688,0.449586,0.416271,0.149351 
1.159182,1.335088,0.455970,0.602344,0.367287 
4.423427,2.258641,0.603755,0.666384,0.184341 
1.366890,2.765951,0.513776,0.264726,0.170437 
1.845958,3.795313,0.985212,0.195362,0.178108 
3.059303,3.961771,0.683651,0.478054,0.179423 
3.569057,4.107418,0.626586,0.166595,0.097877 
1.282546,1.279346,0.787206,0.307275,0.122289 
1.214319,0.589146,0.833102,0.372890,0.138531 
1.012016,1.267329,0.905732,0.408362,0.154502 
1.107475,0.512693,0.690859,0.202936,0.091959 
0.276136,0.235524,0.333893,0.232201,0.149162 
0.424327,0.237314,0.166906,0.117919,0.071142 
0.492529,0.502258,0.417430,0.147800,0.105243 
1.146812,1.486919,0.655627,0.432111,0.121970 
0.708189,1.650284,0.799362,0.734266,0.358685 
4.354793,1.630698,0.609755,0.960329,0.176319 
1.944791,1.583711,0.819945,0.513257,0.210249 
1.226021,2.163313,1.097162,0.434492,0.107526 
1.645611,1.340691,0.862792,0.414065,0.144489 
1.299580,1.534961,1.019600,0.363465,0.141288 
4.135942,1.062166,0.912775,0.462881,0.234553 
3.877955,1.346875,0.401804,0.228312,0.104886 
4.433248,0.602782,0.994754,0.424102,0.185973 
2.352377,0.938548,0.382448,0.154846,0.097927 
0.684572,0.630188,0.282593,0.163891,0.138076 
0.714144,0.680082,0.124613,0.118078,0.090459 
1.672177,0.545595,0.536101,0.200353,0.092377 
1.293345,0.758061,0.342260,0.317897,0.132985 
1.526897,1.163657,0.561206,0.264259,0.203476 
4.065608,1.847101,1.640862,0.745807,0.219570 
3.503971,1.618678,0.735738,0.548773,0.157385 
4.392251,1.035968,0.912449,0.560197,0.242180 
3.587213,2.159133,0.633618,0.763619,0.146896 
4.978957,1.638166,0.619202,0.523936,0.153319 
1.038561,0.798712,1.795837,0.350207,0.169544 
1.414823,0.732661,1.861531,0.450805,0.111627 
0.774408,1.001420,1.826319,0.364960,0.211321 
1.216157,0.649347,1.112672,0.215981,0.102428 
1.133825,0.255249,0.287768,0.216281,0.142902 
0.640122,0.292782,0.218576,0.109094,0.099570 
0.913158,0.753252,0.812903,0.139361,0.117670 
1.502620,1.287536,1.319542,0.457661,0.215633 
0.943034,1.495644,1.835454,0.515830,0.408183 
2.515862,1.792604,1.297178,0.617409,0.261471 
1.424262,1.104002,2.156652,0.520136,0.199124 
74.662002,21.550039,13.846317,6.046702,1.700905 
0.936234,0.961488,1.344537,0.346998,0.191158 
2.048950,0.923036,1.603046,0.335141,0.155773 
0.344745,0.200769,0.369465,0.267264,0.089945 
0.689328,0.252496,0.320320,0.356469,0.121051 
0.764697,0.425615,0.318553,0.317202,0.118183 
0.440593,0.218267,0.302677,0.161055,0.148241 
0.167947,0.224300,0.180312,0.198293,0.339807 
0.261966,0.148848,0.052415,0.101639,0.060766 
1.111876,0.291215,0.201338,0.130391,0.131407 
1.040389,0.622495,0.439575,0.376686,0.143210 
0.569285,0.726239,0.923559,0.751053,0.312427 
4.172519,2.179606,1.110417,0.590298,0.156420 
0.715688,0.692062,0.630395,0.455754,0.216680 
0.877911,0.483596,0.552148,0.385425,0.152378 
0.619032,0.867380,0.698807,0.584954,0.177420 
0.849371,0.463739,0.261189,0.320979,0.147578 
39.453278,4.453465,0.887341,0.296609,0.124169 
47.609266,3.832486,1.317046,0.289008,0.146856 
8.695272,3.179876,0.752899,0.399355,0.122825 
13.455214,2.071845,0.728034,0.250958,0.112355 
0.632948,1.085970,0.358926,0.196951,0.128859 
0.955780,0.674805,0.344129,0.194917,0.124942 
1.049018,0.574829,0.555193,0.191921,0.158554 
0.737478,1.840947,1.165720,0.393637,0.217456 
1.227201,2.027088,0.979949,0.634077,0.355045 
1.714853,4.239777,1.848515,0.757705,0.163663 
3.740119,5.628974,1.202852,0.713900,0.224058 
9.268565,5.380838,1.268406,0.777330,0.154895 
17.217440,5.634176,1.115416,0.572091,0.261702 
23.874736,5.281205,1.562972,0.434103,0.126433 
3.801140,7.944952,2.230459,0.486863,0.137213 
2.969391,3.829940,2.122174,0.226524,0.182314 
1.545141,5.740875,1.815153,0.459405,0.188675 
0.563362,3.258968,1.416038,0.273835,0.166218 
0.235823,0.900884,0.384682,0.279146,0.065782 
0.233663,3.571846,0.730632,0.245713,0.086990 
0.266332,2.666373,1.232557,0.284726,0.114624 
0.321547,5.588711,3.855564,0.429944,0.229776 
0.259118,7.713883,4.794737,0.841934,0.445230 
0.750902,2.701500,2.898026,0.431303,0.289745 
1.453489,6.389032,3.737534,0.566116,0.280663 
2.286602,6.866344,2.703920,0.535264,0.211794 
4.258187,6.846131,2.973176,0.645350,0.219178 
4.217529,7.171559,2.183191,0.432639,0.162690 
2.332299,1.560563,0.543288,0.253691,0.124408 
1.159690,3.416399,0.620636,0.238178,0.122914 
2.793566,1.585868,0.517675,0.236303,0.118765 
0.903777,2.145049,0.336109,0.172058,0.095368 
0.665285,2.091562,0.389172,0.272062,0.158963 
0.290943,2.418172,0.792887,0.101674,0.102045 
1.028425,2.842945,1.026307,0.300245,0.094279 
0.780538,5.457100,0.767842,0.516511,0.231587 
0.743455,6.743921,0.706726,0.913573,0.298059 
4.325527,3.106847,1.960031,0.348760,0.161733 
2.776425,2.117402,1.146353,0.515284,0.211172 
3.338430,2.294094,1.056709,0.505921,0.142678 
2.809651,4.487049,1.809351,0.495627,0.111554 
4.047720,1.917466,0.771005,0.405739,0.117529 
7.304054,1.203341,0.691164,0.423063,0.119208 
7.563283,0.932944,0.688655,0.382036,0.154448 
4.617101,1.834895,0.693888,0.577755,0.176511 
2.009972,0.420637,0.298599,0.251063,0.119492 
0.126723,0.391680,0.265045,0.248120,0.120230 
0.445604,0.315580,0.174926,0.072649,0.060997 
0.338368,0.435682,0.938357,0.185195,0.066378 
1.000569,0.747630,0.574658,0.248787,0.142075 
0.694776,0.948126,0.732360,0.334656,0.280103 
5.611710,3.718787,2.162738,0.389288,0.274616 
1.792198,0.522781,0.833671,0.380297,0.275597 
2.706362,0.871875,0.453095,0.316660,0.137257 
4.574884,0.792204,1.340167,0.465513,0.198011 
5.825088,0.799802,0.712610,0.333202,0.176527 
0.951215,2.139343,0.231824,0.278463,0.072493 
0.760768,2.502297,0.413262,0.271369,0.107021 
0.766914,2.394773,0.261878,0.376142,0.132443 
0.472775,1.533313,0.299577,0.157426,0.111392 
0.377478,0.810080,0.234111,0.183530,0.216387 
0.467752,0.638942,0.304142,0.201233,0.068553 
0.750250,1.092095,0.499520,0.256916,0.086752 
0.479276,4.846225,1.253272,0.759652,0.221948 
0.608333,4.182016,1.053962,1.019233,0.288958 
1.623236,2.744580,1.643339,0.555005,0.206060 
1.414252,4.227818,1.427279,0.451684,0.203598 
1.163604,2.797136,0.619005,0.349579,0.158442 
1.221418,2.897848,0.823893,0.414932,0.171321 
2.666812,2.559377,0.581886,0.354818,0.115461 
3.052554,3.893627,0.940516,0.435503,0.165942 
0.485406,2.102234,0.496212,0.423948,0.153558 
2.176732,3.460840,0.785900,0.452117,0.134263 
0.577540,1.284635,0.661157,0.290069,0.071909 
1.060511,0.615552,0.454889,0.290337,0.125238 
0.258051,2.782792,0.212132,0.164322,0.125594 
0.508885,1.367754,0.456223,0.345728,0.089717 
0.554781,1.916935,0.443391,0.412352,0.172497 
0.860703,3.440533,0.796421,0.554983,0.279082 
6.030699,9.171139,1.136664,0.442775,0.181161 
2.633350,5.877266,1.656472,0.460832,0.130330 
2.969742,5.511701,1.048408,0.562989,0.094041 
5.827843,8.580017,1.508046,0.432898,0.180974 
3.528832,5.308783,0.931000,0.413710,0.127509 
7.129595,5.490581,2.182650,0.776285,0.234452 
3.603274,5.851252,3.518645,0.351684,0.241977 
4.306656,5.178158,1.856087,1.026133,0.171898 
1.747091,3.512790,1.712941,0.430557,0.175225 
0.514435,1.062781,0.695606,0.416522,0.192953 
0.300060,2.662105,0.366919,0.206731,0.163219 
0.526357,1.837835,0.968355,0.073071,0.104182 
0.970820,6.272251,1.064881,0.435444,0.172638 
1.298516,13.883811,1.798425,0.731729,0.294604 
2.306392,15.762242,2.172901,0.853679,0.287410 
3.055537,10.342143,2.758039,1.094160,0.390824 
4.432136,8.014145,2.201871,1.219582,0.305846 
4.120263,9.992981,3.130588,0.829215,0.309182 
4.528677,5.810832,2.125471,0.953262,0.300554 
11.653371,4.679297,1.544646,0.619495,0.195261 
18.171906,2.728281,1.200797,0.596939,0.147750 
3.660829,3.959252,1.461090,0.848309,0.178373 
5.863475,1.568938,1.056971,0.394659,0.095914 
0.671322,0.788086,0.396302,0.361393,0.185623 
0.542079,1.321896,0.379806,0.310834,0.110362 
0.962763,1.381513,0.404678,0.509746,0.120319 
0.327321,7.841433,0.914414,0.717947,0.215281 
0.765797,8.869681,1.269148,0.862817,0.245588 
1.493142,5.100522,1.870791,1.259073,0.270938 
1.658633,4.917581,1.443468,1.245360,0.222219 
3.312750,4.193561,1.462992,1.142790,0.156259 
7.035015,4.750492,1.866688,1.399199,0.233938 
4.557558,3.825036,1.591144,1.036991,0.157770 
1.446858,5.808943,1.080845,0.593597,0.191377 
1.928216,4.102320,1.213789,0.299129,0.173238 
1.545949,7.484638,1.186602,0.473214,0.205947 
0.796818,3.396672,1.069561,0.210288,0.177842 
0.682328,1.225495,0.499412,0.179577,0.178873 
0.444783,0.862414,0.794659,0.205087,0.107187 
0.494657,3.362109,2.831778,0.230770,0.090660 
0.809259,5.849401,3.819824,0.593898,0.163729 
0.712511,5.289431,2.300105,0.568174,0.216438 
5.738327,8.076295,2.556238,0.723401,0.208955 
1.460071,8.508166,2.157581,0.776167,0.307853 
1.352793,10.483325,1.660481,0.938250,0.233643 
1.340705,7.001283,2.236331,0.604425,0.236053 
1.460422,8.617087,1.549130,0.760988,0.216169 
17.381630,17.837155,1.530449,0.764136,0.198837 
18.725898,12.114765,2.676112,0.447949,0.191910 
7.701404,15.764991,2.007294,0.857662,0.183019 
5.347284,6.735790,1.763143,0.487811,0.187880 
0.405803,1.437812,3.420360,0.241011,0.142193 
0.823893,1.488545,0.815567,0.153527,0.055565 
1.045107,4.014111,4.565405,0.436217,0.104315 
1.978499,9.990975,4.967640,0.937338,0.225496 
1.709579,7.039745,3.165226,1.256789,0.274458 
3.810216,6.860049,2.791374,0.664306,0.155963 
4.662371,12.307108,1.969154,0.797465,0.219265 
8.456029,17.454077,2.786550,0.939519,0.249789 
11.847254,12.658432,2.039930,1.096616,0.203417 
13.297821,16.535552,1.929092,0.622722,0.169907 
0.957328,3.415097,0.395010,0.373182,0.159331 
0.608474,2.674873,0.310847,0.485384,0.146579 
0.908326,2.965430,0.494491,0.473456,0.133553 
0.596398,2.280054,0.377565,0.302891,0.130422 
0.336648,0.782907,0.317243,0.171588,0.155285 
0.562642,0.270160,0.160427,0.081836,0.105540 
0.717681,0.450277,0.340964,0.160962,0.097183 
1.199991,0.532049,0.761938,0.362389,0.195997 
0.963958,1.383046,0.558573,0.381593,0.270572 
2.227143,3.178792,2.230314,0.311888,0.238918 
1.087724,2.658864,0.645209,0.326031,0.170690 
1.004210,3.130457,0.363790,0.524667,0.228110 
1.184691,3.224855,0.313629,0.292160,0.140641 
1.248475,2.468185,0.662277,0.422317,0.167918 
1.060825,3.804672,0.631063,0.402149,0.140809 
1.246913,2.586259,0.265448,0.384424,0.137899 
1.210906,3.897850,0.477996,0.487780,0.125579 
0.767820,1.367810,0.235332,0.213226,0.084093 
0.561952,0.419737,0.258032,0.195628,0.197334 
0.350288,0.478614,0.102540,0.069738,0.110332 
0.493731,0.730401,0.215492,0.154793,0.052688 
0.404236,2.830160,0.551267,0.351865,0.215960 
0.576754,3.372748,0.704802,0.490011,0.268263 
6.286183,9.023621,1.761042,0.355265,0.215475 
1.228163,6.076401,0.611210,0.392081,0.120060 
1.349792,6.957710,0.471828,0.399709,0.161566 
1.402569,5.754362,0.386859,0.442808,0.223039 
2.622566,6.168497,0.570318,0.463625,0.186851 
2.494749,1.368057,1.151738,0.589408,0.337793 
1.312479,0.915309,0.884000,0.404036,0.204600 
1.622763,1.236376,0.897979,0.515353,0.269652 
1.077224,0.764969,0.557070,0.372345,0.253693 
1.175826,0.577123,0.487855,0.438521,0.218798 
0.623073,0.283354,0.277168,0.192661,0.067621 
0.526963,0.338088,0.475279,0.144542,0.124909 
1.155341,0.991884,0.703770,0.506838,0.295952 
0.875260,1.368050,1.161635,0.938494,0.589036 
3.198353,3.012591,1.984839,0.718316,0.326673 
2.024438,1.586972,1.843842,0.822413,0.249779 
1.838904,1.028565,1.362912,0.567685,0.266630 
1.463965,1.524196,1.303599,0.645951,0.198605 
3.102371,1.243850,1.158422,0.705412,0.267319 
5.169620,1.097770,0.904063,0.498479,0.130878 
2.378517,1.201433,0.515860,0.260403,0.110271 
2.943151,1.681331,0.948919,0.541197,0.128216 
0.824803,0.714085,0.509160,0.195221,0.084410 
0.513700,1.307602,0.229730,0.270013,0.122895 
1.087669,2.027929,0.524275,0.268363,0.062169 
0.722800,2.932663,0.405623,0.216026,0.094992 
1.353330,7.606502,1.147270,0.655468,0.105898 
1.534466,6.457039,0.964150,0.693442,0.183852 
2.855600,3.834623,1.584351,0.551611,0.136936 
2.152992,2.871992,1.386161,0.453458,0.080938 
4.335360,2.503093,1.581440,0.575007,0.100192 
2.576015,2.433173,1.235358,0.471573,0.169960 
4.765947,1.820664,0.981898,0.443642,0.087534 
3.337864,1.962387,0.794656,0.427231,0.273507 
2.475025,3.361469,0.425580,0.472952,0.193457 
3.149988,2.411309,0.821624,0.534318,0.214920 
0.990168,1.907932,0.361209,0.322305,0.174122 
0.653305,1.234275,0.250335,0.253974,0.121822 
0.561509,3.905871,0.656885,0.217184,0.087642 
0.603162,4.145654,1.293233,0.235078,0.063129 
0.636677,10.624230,2.735586,0.497808,0.168560 
0.767084,7.311053,1.173697,0.622066,0.206730 
2.938235,4.010877,1.090613,0.705729,0.211760 
2.625286,3.006079,0.764283,0.554935,0.137357 
4.407902,3.054391,0.639795,0.398455,0.189253 
2.926991,3.901263,0.711846,0.350124,0.184621 
4.253157,2.453949,0.754373,0.331022,0.212330 
5.393724,2.893020,0.519485,0.354053,0.144502 
7.079553,3.644386,0.796422,0.288576,0.140158 
1.886186,1.678738,0.434854,0.465652,0.168028 
2.282610,1.369915,0.411451,0.239263,0.129060 
0.382877,0.425304,0.302504,0.145637,0.172707 
0.584701,0.261302,0.229254,0.158366,0.079083 
0.875884,0.310388,0.457113,0.365413,0.129895 
0.756503,1.296866,0.585837,0.376928,0.110666 
0.526135,0.557833,0.352385,0.575397,0.257818 
3.603634,2.238597,1.119214,0.260848,0.134513 
1.878209,2.566971,0.657430,0.438658,0.263273 
1.798961,2.054659,0.460493,0.625106,0.175213 
4.588359,3.546087,0.751260,0.321625,0.204415 
4.276377,2.425724,0.489463,0.456606,0.132295 
4.243444,4.604950,0.442952,0.333091,0.135405 
1.384265,1.520775,0.595210,0.273725,0.108552 
2.703818,5.581779,0.325956,0.277186,0.152474 
0.534803,1.701520,0.349781,0.168407,0.094182 
0.643459,0.738565,0.816006,0.238638,0.168338 
0.965837,3.854928,0.257452,0.167947,0.075695 
0.828904,0.912026,1.094317,0.216282,0.078038 
1.316176,17.356990,1.428994,0.216126,0.183089 
1.551265,13.554140,1.307808,0.403484,0.316031 
4.578455,7.878461,0.934940,0.313063,0.196752 
0.940811,13.584242,0.959739,0.447457,0.203025 
3.005505,12.849115,0.837256,0.515679,0.202152 
2.742890,9.196721,0.944211,0.396377,0.183800 
3.079554,8.781207,0.727807,0.399598,0.146554 
1.829191,0.702489,1.345801,0.436423,0.187698 
2.076899,0.647510,0.723630,0.271346,0.130576 
1.606602,0.696533,1.282807,0.379472,0.129284 
0.769229,0.352373,0.655290,0.210924,0.132298 
0.390851,0.535123,0.337598,0.264415,0.167406 
0.616644,0.494782,0.235522,0.147628,0.084821 
0.759438,0.529870,0.608614,0.256437,0.062701 
1.439723,1.923491,0.898411,0.532939,0.197990 
0.678004,2.141200,0.764316,0.900959,0.236437 
2.552600,3.167102,1.613955,0.710917,0.185217 
1.129371,0.819433,1.378744,0.708196,0.218346 
1.322042,0.662932,1.277997,0.561212,0.227405 
1.436676,0.840767,1.052282,0.635149,0.166832 
1.786567,0.477556,1.052338,0.376324,0.171356 
0.999350,2.054027,0.832518,1.223563,0.180553 
0.763350,1.515207,0.817891,0.730984,0.128109 
0.846698,1.846565,0.720891,1.616890,0.294447 
0.371374,1.155264,0.740978,0.578589,0.117466 
0.354054,0.593959,0.470633,0.142673,0.190384 
0.269351,0.498349,0.282422,0.189470,0.091896 
0.276550,0.703138,0.313710,0.249298,0.150311 
0.380537,2.845606,1.192273,0.716172,0.268094 
0.651650,2.915283,0.655632,0.597947,0.492019 
2.982526,3.368496,0.855791,0.456153,0.271427 
1.274400,1.319486,1.498589,0.878939,0.200266 
0.627263,1.805297,0.871267,1.492459,0.258706 
0.808836,2.034039,1.153721,0.845479,0.175985 
1.351152,1.671625,0.934266,0.991083,0.171090 
0.665653,2.443841,1.337328,0.363338,0.141834 
0.760057,2.115204,1.304305,0.232728,0.081632 
0.692142,2.025380,1.380578,0.620356,0.149465 
0.510198,1.012695,1.499954,0.211922,0.082650 
0.872062,0.495203,0.463110,0.274663,0.176416 
0.504347,0.576896,0.616636,0.094593,0.062235 
0.519575,1.038687,0.607320,0.228023,0.110976 
0.707506,4.368247,1.733261,0.325120,0.116078 
1.224202,4.783899,1.749022,0.450480,0.207005 
1.833990,4.444734,2.081772,0.352618,0.146775 
2.104187,4.778122,1.933931,0.332754,0.168940 
1.338678,4.071659,2.141651,0.512197,0.275833 
1.863238,4.325300,2.216926,0.379163,0.216959 
2.428224,3.934345,1.648807,0.546989,0.170556 
19.743712,3.450915,1.929243,0.368621,0.097305 
18.730418,3.579697,0.483764,0.268312,0.106195 
5.238008,1.999324,1.427511,0.239844,0.120687 
5.379004,1.403948,0.493311,0.146375,0.095062 
0.412568,0.589055,0.277820,0.205909,0.127531 
0.825335,0.400005,0.319420,0.129213,0.100348 
0.764672,0.263130,0.342489,0.170779,0.094519 
0.663536,0.969277,0.817826,0.230431,0.143493 
0.538062,1.656399,1.093366,0.180986,0.261193 
4.252790,4.889433,1.742667,0.500031,0.195118 
3.241449,1.813640,1.112681,0.308521,0.162157 
5.769707,1.069090,1.680825,0.441694,0.111784 
7.451471,2.131607,1.243672,0.336578,0.137613 
10.075434,2.287877,1.479968,0.312104,0.125630 
6.109549,1.694189,0.753263,0.518363,0.144206 
1.540291,2.186668,0.610664,0.298140,0.114687 
4.777127,1.185367,0.699783,0.611148,0.151674 
1.520514,1.782776,0.534418,0.211031,0.106902 
0.370298,0.655509,0.272198,0.246751,0.177420 
0.338861,5.607380,1.356248,0.123669,0.107130 
0.985655,3.466225,1.635246,0.235573,0.089149 
1.076223,2.645155,1.404584,0.264287,0.140765 
0.800468,3.656376,1.982156,0.458682,0.238523 
2.840946,3.151111,2.195001,0.548844,0.136754 
3.607430,2.716027,1.253761,0.325516,0.123131 
6.041038,1.842954,0.874773,0.427631,0.189220 
5.673636,2.932288,1.338015,0.455845,0.212624 
5.045861,1.886571,0.955553,0.374032,0.136391 
3.967110,2.226005,0.811544,0.382208,0.148917 
4.824791,2.443854,0.739120,0.240611,0.126402 
2.285787,1.973188,0.588344,0.293691,0.169299 
1.410168,2.153497,0.696063,0.141769,0.124720 
0.312494,0.611968,0.483077,0.281090,0.117142 
0.198208,0.294316,0.633673,0.209549,0.059918 
0.246374,1.092208,0.440341,0.164641,0.098259 
0.200624,3.262869,0.883602,0.318531,0.124787 
0.710794,2.929191,0.627700,0.622977,0.199629 
2.822223,2.281208,0.718407,0.509010,0.218654 
1.755015,1.892671,1.053576,0.777182,0.220384 
2.241783,1.833150,1.031602,0.491271,0.265438 
2.268500,2.003023,0.972007,0.428188,0.203499 
4.633981,2.782131,0.864513,0.307265,0.191608 
0.595825,4.638886,0.282426,0.543310,0.197041 
0.571356,3.047688,0.204882,0.322761,0.101606 
0.809220,4.017007,0.234099,0.627413,0.124312 
0.707328,1.887859,0.270147,0.240283,0.053351 
0.276135,0.714952,0.308396,0.233872,0.117547 
0.208170,0.503872,0.626747,0.213544,0.105639 
0.461701,0.716912,0.603191,0.284573,0.108646 
0.585875,2.280832,0.781619,0.321325,0.189342 
0.811654,2.381873,0.752683,0.296468,0.326881 
3.413954,3.434790,1.409031,0.815476,0.189105 
0.587073,3.628308,0.481410,0.657758,0.129241 
0.885881,4.519707,0.460800,0.987384,0.134890 
0.370579,3.876416,0.763982,0.410011,0.136048 
1.204163,4.865213,0.617298,0.631780,0.110413 
1.727617,2.614153,0.890895,0.312999,0.110218 
1.963078,2.751521,1.314734,0.317677,0.168874 
1.496522,2.456493,0.710979,0.281827,0.109035 
0.796953,2.439422,0.644907,0.174932,0.094255 
0.689733,0.962651,0.617352,0.347249,0.174513 
0.250300,0.764745,0.256003,0.224364,0.076533 
0.285281,1.914487,0.391604,0.306270,0.139273 
1.199220,2.344496,1.472909,0.457038,0.116743 
1.008075,1.691495,0.640703,0.541766,0.167318 
2.598782,4.097358,1.449239,0.536594,0.105493 
2.188109,4.861888,1.179937,0.323861,0.207331 
0.971698,4.409328,1.284037,0.336677,0.123590 
3.222851,3.949521,1.573434,0.297178,0.143383 
5.651961,3.529416,0.703954,0.236247,0.122180 
3.682476,3.785857,0.439332,0.444459,0.181364 
1.226370,2.922346,0.347156,0.260420,0.098780 
3.261858,6.082530,0.586550,0.622746,0.182593 
0.679034,1.398065,0.369210,0.300067,0.097071 
0.406707,0.814387,0.363729,0.232087,0.087243 
0.556539,2.333541,0.324383,0.249374,0.059277 
0.589726,1.456093,0.565513,0.567624,0.107716 
0.580326,12.992006,1.757561,0.852149,0.173644 
0.454994,12.569531,1.715558,0.785963,0.266409 
2.372541,4.922165,1.580426,0.617378,0.234598 
2.567614,5.418766,0.833237,0.591833,0.190155 
5.276761,8.304466,0.848935,1.062293,0.237990 
4.079792,4.207989,1.010736,0.476942,0.203509 
4.554346,5.629918,0.629763,0.551405,0.149296 
4.509550,7.078860,1.806078,0.486807,0.158018 
2.333402,3.098416,0.891966,0.368167,0.113954 
2.558656,8.761355,2.516901,0.501928,0.153761 
1.089538,2.396886,0.585968,0.259167,0.090519 
0.345943,0.637171,0.648869,0.198632,0.151148 
0.291123,2.841752,0.789216,0.175453,0.100376 
0.296376,1.968571,1.131120,0.167307,0.123295 
1.432349,8.308170,2.045361,0.509192,0.193943 
1.386659,10.623289,3.795204,0.690653,0.242992 
6.372084,10.112375,1.583227,0.642404,0.251226 
2.137468,11.976105,1.544417,0.599598,0.202069 
5.197126,12.438898,3.512269,0.559580,0.158040 
3.431251,8.932152,1.232706,0.526198,0.218538 
3.340792,9.095872,1.923592,0.619096,0.203528 
14.311248,12.856716,0.637582,0.825780,0.184433 
16.306617,8.296359,0.761946,0.450875,0.146969 
4.545812,10.439981,0.892138,0.755306,0.181647 
5.557352,4.815680,0.421943,0.404221,0.100841 
0.350624,1.287584,0.402109,0.335483,0.201544 
0.463051,0.705754,0.272546,0.118885,0.070529 
0.514631,0.449371,0.450797,0.204218,0.083148 
0.772194,2.426336,0.372122,0.288170,0.163157 
0.793256,3.639942,0.523886,0.401429,0.247053 
4.029851,6.301943,1.233722,0.736660,0.244231 
4.822900,10.113342,0.744666,0.521825,0.223805 
3.508187,12.246792,0.894320,0.740193,0.213541 
10.297853,12.441356,0.726499,0.530289,0.230750 
13.570374,12.546721,0.413005,0.556071,0.145770 
3.434933,3.421602,0.832533,0.286145,0.130755 
1.692511,1.901408,0.667099,0.174913,0.137224 
2.299169,3.868634,0.447482,0.466468,0.156080 
0.729709,1.487989,0.633796,0.175660,0.108984 
0.357355,0.292531,0.390722,0.226546,0.172683 
0.243201,4.091396,0.641369,0.089973,0.082400 
1.060889,3.646543,1.001298,0.226398,0.086249 
1.699326,12.323316,1.438493,0.599719,0.183959 
1.410502,11.848153,2.939003,0.708271,0.284386 
3.279105,5.346723,2.063685,0.341903,0.209846 
1.683913,4.761523,1.832577,0.490030,0.288270 
2.888777,4.072685,1.037805,0.669603,0.216385 
2.206378,4.592880,1.907717,0.503769,0.322383 
6.066890,3.678251,0.979589,0.468279,0.265840 
1.523806,3.814207,0.809211,0.322703,0.131715 
1.697665,2.398381,1.119596,0.497820,0.111371 
1.120890,3.414771,0.829720,0.266944,0.125221 
0.652563,1.263769,0.519691,0.193632,0.087861 
0.498380,0.884114,0.265925,0.208095,0.155294 
0.653940,1.494270,0.271338,0.153353,0.083282 
0.997959,1.429267,0.614272,0.175605,0.072865 
1.134296,6.451392,1.588561,0.271999,0.185545 
1.086391,6.666782,1.597107,0.497434,0.272349 
0.399170,5.059569,0.871129,0.314984,0.160935 
0.895645,7.445254,1.333403,0.389878,0.191830 
1.132758,6.604866,1.132922,0.472205,0.204460 
1.508875,6.977565,1.410198,0.311958,0.185320 
2.410847,4.705350,1.148735,0.276133,0.116044 
0.585153,1.730002,0.333196,0.588145,0.165571 
0.834131,1.306699,0.286470,0.389127,0.136278 
0.484283,1.504095,0.372895,0.576555,0.220786 
0.586991,0.793994,0.209747,0.280831,0.134112 
0.211656,0.285081,0.184978,0.173704,0.147172 
0.178071,0.107054,0.160142,0.110790,0.097758 
0.895800,0.321723,0.222910,0.157435,0.092114 
0.923184,1.275425,0.820477,0.237046,0.120473 
0.985383,1.057095,0.698791,0.374961,0.128000 
1.105562,0.930095,0.502118,0.232640,0.121835 
1.162870,1.743409,0.586165,0.462308,0.168982 
0.895662,2.408106,0.416967,0.581896,0.243288 
2.980137,1.899248,0.599712,0.436157,0.185245 
0.608630,1.779639,0.282115,0.410335,0.142428 
0.569884,3.434279,0.321088,0.447870,0.143089 
0.713170,3.113851,0.267514,0.409285,0.141581 
0.536644,2.761540,0.732889,0.701778,0.129520 
0.438584,1.778624,0.286299,0.316282,0.129481 
0.247958,1.197871,0.406234,0.280244,0.144582 
0.154464,0.734764,0.376734,0.162507,0.083839 
0.136536,0.860706,0.640733,0.188520,0.096250 
0.424779,1.593441,0.440686,0.150658,0.138711 
0.461400,2.071153,0.622246,0.155673,0.250146 
0.538952,3.151653,0.756749,0.206176,0.143296 
0.952109,5.924355,0.826257,0.456958,0.178996 
0.625575,4.566552,0.253885,0.476751,0.135886 
0.980315,5.455804,0.869768,0.356633,0.159709 
1.135975,4.869867,0.264262,0.378379,0.140178 
2.044679,4.050274,1.469528,0.446945,0.112373 
1.035231,2.346788,1.618013,0.292875,0.142638 
0.880058,4.403853,1.583666,0.571734,0.154318 
0.313171,1.985475,0.992903,0.245091,0.107568 
0.540662,0.644685,0.481437,0.267087,0.119579 
0.413443,0.651721,0.769885,0.167550,0.077150 
0.393669,2.007772,2.632705,0.269119,0.098714 
0.791302,8.177534,2.573459,0.475884,0.186058 
0.949165,10.968559,3.052430,0.635186,0.331479 
0.644792,8.682777,2.926688,0.436741,0.106623 
1.806684,10.396399,3.392488,0.989933,0.245777 
1.683186,7.403272,2.003480,0.864089,0.207579 
2.292056,9.692009,3.294188,0.813564,0.233759 
2.116601,7.254542,2.187170,0.708463,0.160393 
1.237160,3.868545,1.039299,0.682922,0.149230 
1.575224,3.360196,0.875745,0.252323,0.137398 
0.901509,3.396257,0.670961,0.990307,0.147549 
0.586421,2.059538,0.628505,0.308845,0.110396 
0.343579,0.611402,0.713292,0.316424,0.106980 
0.287130,0.190617,0.310281,0.193268,0.099571 
0.443736,1.771306,1.076842,0.459812,0.083846 
0.434228,3.232564,1.304741,0.799823,0.210900 
0.554517,1.709912,0.595467,0.536072,0.334104 
0.660117,2.101452,0.312813,0.379326,0.218582 
1.254991,3.589128,0.620658,0.944554,0.264401 
1.627613,3.042349,0.786323,1.635089,0.189596 
1.249186,4.188809,0.567743,0.753696,0.325344 
1.522846,3.347615,0.547764,0.690166,0.136081 
1.748067,7.227809,0.411339,0.399501,0.155835 
0.641274,3.213160,0.423209,0.318418,0.115153 
1.489035,7.780697,0.529185,0.370509,0.089063 
0.430888,3.356773,0.247321,0.289110,0.101064 
1.009536,0.681715,0.127995,0.350102,0.127816 
0.668763,5.393896,0.164070,0.066456,0.070901 
0.460601,2.616870,0.196513,0.231568,0.118893 
0.863962,1.158276,1.061618,0.410143,0.211078 
1.017407,0.800248,1.055206,0.513647,0.323931 
1.269644,3.519796,0.791816,0.382691,0.128280 
2.398080,9.739425,0.548842,0.451626,0.174964 
2.064616,11.108432,0.822544,0.623097,0.151708 
2.458673,8.946711,0.602962,0.557331,0.168438 
2.326204,9.418358,0.429371,0.448087,0.094922 
0.777634,7.421516,0.946987,0.975146,0.132859 
0.978466,5.310525,0.593701,0.505847,0.110468 
0.882369,7.520351,0.957343,0.972756,0.149344 
0.511905,3.922868,0.560051,0.376769,0.122256 
0.359712,1.064941,0.686676,0.350954,0.121005 
0.253968,0.972892,0.610676,0.139771,0.081224 
0.511100,2.072224,1.224755,0.239597,0.081753 
0.969430,6.356428,1.452925,0.497550,0.125114 
1.063630,10.234313,2.061661,0.613827,0.279745 
1.042743,8.961575,2.445452,0.414988,0.157017 
1.763796,11.404216,1.765212,1.140488,0.144570 
1.255048,7.911570,1.342056,1.286840,0.137973 
1.475374,9.148569,1.948654,0.826125,0.134792 
2.535765,6.155726,1.072031,0.903489,0.137689 
0.922150,2.737995,1.542175,0.272808,0.165989 
1.755598,3.905441,0.988985,0.168084,0.089027 
1.432224,2.710452,1.681408,0.468383,0.114854 
0.718077,2.550067,1.183432,0.122955,0.125314 
0.521784,1.692623,0.595258,0.366280,0.162098 
0.432660,1.535957,0.559939,0.117068,0.068675 
0.498940,2.664543,0.501645,0.274715,0.115459 
1.076015,2.862992,0.457339,0.524774,0.138857 
1.788900,2.559431,0.452351,0.576036,0.254282 
1.446196,2.294139,0.933643,0.567609,0.182363 
2.292532,4.147503,2.221043,0.803086,0.164888 
1.301356,3.437029,2.445028,0.606861,0.120823 
2.194272,3.989631,1.771106,0.587842,0.160133 
1.705834,3.253800,1.861494,0.542264,0.107832 
2.600111,6.021695,1.764006,0.610586,0.105073 
3.183459,5.219535,1.365942,0.434068,0.099106 
2.699738,5.552306,2.060053,0.615168,0.173885 
1.239395,3.880964,1.143654,0.491230,0.109335 
0.516080,1.356271,0.330153,0.241857,0.086168 
0.193559,5.601797,0.163566,0.127151,0.106057 
0.582876,1.696578,0.745695,0.175340,0.086364 
0.930036,19.004701,3.345517,0.301925,0.162344 
0.757793,18.809964,2.321488,0.377521,0.252208 
0.705768,11.783733,1.826739,0.297244,0.133913 
2.979675,14.983169,3.443418,0.632308,0.171109 
4.438856,13.912105,3.559069,0.702659,0.162391 
5.290761,11.253963,3.333306,0.391286,0.166373 
3.129972,10.434810,2.510182,0.406537,0.148045 
2.389814,1.000697,0.590392,0.406444,0.118309 
2.487748,1.101997,0.418319,0.303543,0.080409 
0.767545,0.611850,0.630181,0.386896,0.149784 
0.779232,0.456261,0.233170,0.163410,0.102066 
0.181259,0.413347,0.275036,0.101869,0.141298 
0.278144,0.558406,0.219737,0.068165,0.091190 
1.068282,0.356447,0.189901,0.073656,0.058262 
0.605507,1.143101,0.370454,0.239872,0.108265 
0.478945,1.949387,0.369138,0.321703,0.152993 
0.352920,1.028432,0.474936,0.154111,0.134203 
0.760741,0.844830,0.792089,0.289604,0.161934 
0.697501,1.174975,0.554389,0.348316,0.142673 
1.514662,1.146537,0.518782,0.340520,0.165499 
1.579540,0.587481,0.617548,0.418509,0.128927 
0.919772,1.913608,1.208036,0.335259,0.127196 
0.686245,1.677772,0.984677,0.204055,0.139329 
1.059035,1.043380,1.120639,0.355511,0.122533 
0.309854,1.183923,0.801338,0.201368,0.099314 
0.259867,0.773490,0.224424,0.163239,0.128906 
0.171434,0.996098,0.180206,0.105356,0.090400 
0.202459,2.015009,0.316780,0.212431,0.098879 
0.219819,5.226104,0.860060,0.295360,0.151189 
0.321043,4.225490,0.910428,0.425695,0.210653 
0.336150,1.770586,1.186668,0.292651,0.083416 
0.721264,2.221331,1.818054,0.410826,0.183647 
1.154565,2.291349,1.360070,0.277965,0.151311 
0.902973,1.570545,2.073158,0.272179,0.147409 
1.339999,1.891443,1.479843,0.249335,0.150559 
2.756183,4.019814,0.336888,0.483335,0.147895 
1.149905,1.631196,0.390765,0.506138,0.125460 
3.191820,4.130603,0.460255,0.510065,0.144349 
0.678628,1.860612,0.167613,0.260155,0.128605 
0.354194,0.484147,0.221319,0.131955,0.160468 
0.180627,4.038176,0.362082,0.228792,0.090349 
0.828368,2.540994,0.550948,0.204581,0.082655 
1.782780,10.184877,1.261870,0.312155,0.108003 
1.447056,8.853130,1.141538,0.360009,0.207823 
1.140795,3.768657,0.702559,0.302751,0.096925 
3.130442,5.152228,0.999856,0.564791,0.144751 
5.024432,6.538841,0.947547,0.486166,0.154777 
3.119264,4.028732,1.047885,0.487746,0.137024 
6.412049,4.942637,0.622728,0.411862,0.183187 
3.458751,5.630653,1.017097,0.331239,0.125604 
3.522931,7.764590,0.617820,0.379570,0.116795 
2.734843,4.943680,0.826386,0.367917,0.182466 
1.772467,4.246073,0.542912,0.158967,0.130791 
0.519437,0.903530,0.169764,0.176830,0.150291 
0.335031,2.790625,0.110619,0.219977,0.084897 
0.610714,3.713220,0.268996,0.125293,0.114360 
1.118269,8.357315,1.476024,0.298742,0.180679 
2.040284,8.870525,0.981273,0.437580,0.238267 
1.720331,5.892855,0.927678,0.299744,0.094203 
3.619445,6.936976,1.474635,0.409166,0.147459 
3.288249,6.017360,1.496303,0.400709,0.161587 
4.328396,7.643827,1.539840,0.481498,0.156709 
5.096796,5.150076,1.074122,0.297726,0.148122 
0.548673,1.569907,1.476767,0.345568,0.145825 
0.474825,1.326289,1.056458,0.228977,0.115945 
0.535995,1.629832,1.846339,0.546163,0.191827 
0.340307,0.847668,0.711672,0.136949,0.136654 
0.418238,0.284030,0.452576,0.193677,0.140103 
0.401714,0.095625,0.385300,0.139072,0.102331 
0.762524,0.298394,0.944635,0.200791,0.110596 
1.363512,0.810008,1.173482,0.560510,0.203220 
0.537819,1.690271,0.856138,0.652695,0.299013 
0.537171,1.721198,0.921173,0.328653,0.193760 
0.992528,3.302746,2.054012,0.318961,0.224260 
1.126895,1.827851,1.683799,0.382574,0.174165 
0.681947,2.298702,1.598886,0.234995,0.187377 
2.735182,1.459138,1.150618,0.253068,0.203635 
1.429041,1.913818,0.871559,0.250459,0.185258 
1.011541,1.946945,0.652795,0.204674,0.193867 
1.159219,2.046977,1.057458,0.256688,0.221107 
0.562034,1.245007,0.265502,0.125793,0.113791 
0.323196,1.960442,0.586185,0.206835,0.144637 
0.438071,1.171824,0.468773,0.133662,0.089179 
0.475764,3.515075,0.829305,0.250286,0.092811 
1.158136,18.994009,0.659610,0.489915,0.134767 
1.499001,13.687631,0.634482,0.769229,0.237191 
0.983958,6.787830,0.975540,0.468507,0.169197 
1.257978,8.320752,1.569688,0.478565,0.159308 
2.333576,5.128192,1.211911,0.390291,0.164440 
1.627625,6.302319,1.617910,0.486825,0.202894 
3.720386,3.461971,0.862569,0.460813,0.208725 
2.726251,8.824651,1.070913,0.237053,0.202723 
1.421208,4.638959,0.614783,0.259369,0.121480 
2.838403,8.888892,0.765845,0.360971,0.177988 
0.593127,4.288615,0.598001,0.155108,0.160212 
0.616010,0.626723,0.362180,0.153835,0.175742 
0.640826,4.061503,0.299522,0.153865,0.071952 
0.578522,2.061753,0.915496,0.323694,0.115679 
0.956305,5.525180,1.497012,0.570775,0.160562 
1.534924,5.929575,1.530851,0.698085,0.185115 
1.768410,4.983422,0.671359,0.427811,0.137308 
3.294487,9.238824,0.833905,0.467130,0.181411 
3.258868,12.132067,0.943999,0.554195,0.185202 
3.909657,8.399807,1.014589,0.458184,0.158855 
4.069571,10.793129,1.195776,0.398572,0.119553 
1.152195,4.448233,0.527720,0.343623,0.185956 
1.194857,2.309086,0.195683,0.317329,0.151065 
1.075649,5.374344,0.902145,0.338114,0.166724 
1.223777,1.912437,0.382069,0.274410,0.098146 
0.479241,0.709025,0.211447,0.267627,0.164909 
0.244566,3.039298,0.372219,0.151633,0.077828 
0.607124,1.831238,0.353344,0.177291,0.087979 
0.960921,15.727868,0.659172,0.333949,0.209688 
1.205498,11.292515,0.779959,0.330308,0.295372 
1.432414,8.777410,0.477028,0.330818,0.193606 
1.198584,13.274569,0.572464,0.566142,0.227292 
1.232430,9.794600,0.915415,0.482318,0.158725 
1.938281,9.200893,0.526833,0.441155,0.237340 
1.490684,6.375074,0.762748,0.457114,0.179913 
14.181670,6.027139,2.147104,0.495570,0.124176 
14.829648,4.707528,1.925103,0.282482,0.108095 
5.519907,3.822572,1.403532,0.431026,0.105058 
4.930129,2.408222,0.843058,0.263083,0.113824 
0.481736,0.730559,0.802512,0.293291,0.163513 
0.378000,0.575616,0.181454,0.140454,0.078814 
0.260721,0.899879,0.614104,0.102355,0.104579 
0.349724,3.835130,0.903278,0.274176,0.135053 
0.520204,4.817835,0.804083,0.335999,0.242313 
0.584745,3.114891,0.453886,0.443789,0.108206 
5.409146,4.253275,1.271601,0.530464,0.137110 
6.431329,4.502697,1.595558,0.589036,0.124199 
10.266907,5.206476,1.518327,0.535678,0.125350 
12.633513,3.932685,1.103384,0.468085,0.095295 
4.585394,1.883890,0.723444,0.461975,0.143989 
1.673620,2.225926,0.387931,0.276669,0.174937 
2.710673,1.387709,0.614848,0.562898,0.133686 
0.942335,1.332432,0.198546,0.243095,0.085193 
0.238971,0.953057,0.208006,0.179519,0.130058 
0.267937,0.305072,0.123460,0.095936,0.116252 
0.615891,3.403072,0.304259,0.120446,0.098909 
1.134008,5.727661,1.977283,0.320175,0.232173 
1.608951,3.730581,1.370617,0.380464,0.293243 
0.779524,1.598959,1.039359,0.378011,0.201733 
2.401661,2.943537,0.943765,0.557008,0.144186 
4.968902,1.932548,1.176467,0.754687,0.162893 
4.534579,3.564541,0.927875,0.603239,0.224320 
4.593002,2.102283,0.566344,0.511896,0.130329 
10.224944,4.051609,0.654567,0.345462,0.164290 
12.616284,2.781833,0.289914,0.267324,0.139772 
5.997890,3.252234,0.478814,0.341876,0.135742 
4.440620,1.624729,0.239566,0.242070,0.123138 
0.624060,0.315220,0.261826,0.241291,0.130691 
0.480618,0.679302,0.398658,0.117669,0.069165 
0.808926,0.901553,0.251725,0.176633,0.082334 
1.488098,0.773135,0.593681,0.421376,0.207868 
1.855683,2.201758,0.538618,0.726985,0.175256 
1.436761,2.095696,0.476565,0.628597,0.153812 
3.450830,4.794194,0.683039,0.633946,0.231264 
4.429331,4.181944,0.401410,0.525659,0.181287 
6.947743,5.272218,0.613795,0.661918,0.150619 
9.037016,3.848819,0.722686,0.484079,0.128350 
1.072875,1.658345,0.385733,0.633108,0.136359 
1.080405,1.066346,0.087606,0.293365,0.112803 
0.852863,1.731613,0.431835,0.551281,0.107123 
1.148238,0.619878,0.097163,0.287760,0.114813 
0.387131,0.335634,0.203270,0.212769,0.138909 
0.380403,0.443708,0.635766,0.258558,0.097017 
0.209887,0.822522,0.655399,0.219792,0.125408 
0.625363,3.272254,0.753992,0.567487,0.104273 
0.609196,2.520151,0.603415,0.472050,0.256494 
0.685500,2.015609,0.352142,0.286834,0.145043 
0.759839,2.648173,0.368033,0.630057,0.181867 
1.361449,2.706673,0.589345,0.633982,0.104572 
1.113490,2.854372,0.375078,0.508027,0.095958 
1.307944,2.078097,0.441195,0.701186,0.104175 
4.419573,3.369579,1.659315,0.165469,0.153988 
7.260456,3.719546,1.800702,0.377341,0.125714 
1.996785,1.971377,2.004992,0.198907,0.180302 
2.085219,1.507630,1.359865,0.161349,0.111163 
0.468398,0.686556,0.821035,0.261374,0.122998 
0.611696,0.708380,0.248153,0.098341,0.094925 
0.888588,1.560400,1.988306,0.389727,0.114416 
0.708741,1.238628,1.637384,0.646998,0.137006 
1.013947,1.514056,0.991530,0.692901,0.202506 
0.720360,1.117755,1.051902,0.994579,0.195745 
1.094625,2.726860,1.834167,0.559565,0.215439 
1.075951,3.358856,1.777987,0.179198,0.250019 
2.917457,3.802353,2.464560,0.365790,0.218719 
3.449840,3.289653,1.689597,0.187720,0.196154 
1.544133,3.497251,0.887892,0.794881,0.159844 
1.372372,2.976723,0.743271,0.620237,0.092850 
1.122228,3.963769,0.649208,0.907710,0.168978 
0.782050,2.199548,0.751781,0.444334,0.124019 
0.267512,0.987313,0.347567,0.251367,0.150279 
0.323490,0.591960,0.246691,0.070696,0.078781 
0.526907,0.892101,0.217635,0.128464,0.106607 
1.478094,6.459663,0.381585,0.342708,0.184786 
1.223413,7.451651,0.680502,0.574717,0.200961 
0.876597,7.266920,0.564899,0.668750,0.146692 
1.768169,7.550515,1.110765,1.194618,0.284988 
1.682141,5.466661,1.164637,1.020121,0.228985 
1.995300,6.744572,1.057532,1.040835,0.280863 
2.922527,4.184283,0.764139,0.953402,0.181657 
1.514951,0.896300,0.643324,0.382909,0.159175 
0.847850,0.853025,0.542640,0.412965,0.151894 
1.395374,1.299580,0.600860,0.390732,0.133990 
0.728246,0.743467,0.419926,0.293535,0.154475 
0.290870,0.461966,0.436250,0.257410,0.126537 
0.401449,0.302740,0.348097,0.330075,0.050059 
0.779265,0.732469,0.425312,0.149573,0.072332 
0.710277,2.141479,0.816409,0.196695,0.121590 
0.644427,2.003964,0.972401,0.355822,0.174410 
1.383828,0.803571,0.379334,0.329577,0.106576 
1.044410,1.251069,1.122649,0.618378,0.120351 
1.752620,0.868058,0.541169,0.488832,0.128966 
1.124400,1.045826,0.636818,0.540204,0.116447 
0.988930,0.496267,0.716562,0.395491,0.103519 
2.175609,4.472267,0.985246,0.351037,0.122593 
1.506980,2.305330,1.224471,0.369509,0.156956 
1.676368,5.520355,1.215310,0.346831,0.131428 
0.949699,1.912651,0.759456,0.257643,0.087656 
0.499077,0.820609,0.946703,0.216966,0.108810 
0.402335,1.975503,0.542203,0.325992,0.064531 
0.714316,3.919441,1.191306,0.494370,0.094795 
0.764888,18.141704,0.815989,0.712409,0.108649 
0.918111,13.227446,0.945939,0.727142,0.204669 
0.776853,6.069233,0.732243,0.608476,0.094130 
1.483752,7.847436,1.529126,0.382136,0.210959 
2.532978,8.067152,1.148917,0.450586,0.129303 
1.356508,5.129126,1.348168,0.554758,0.144078 
5.587535,5.818611,0.976967,0.403315,0.083419 
1.825395,1.559841,0.721851,0.410392,0.176631 
1.749086,2.142371,0.828164,0.299526,0.121382 
1.164898,2.488352,1.068705,0.432586,0.156496 
0.811062,2.280423,0.707140,0.427740,0.150005 
0.511239,0.816185,0.119754,0.188639,0.093492 
0.346684,2.427643,0.595690,0.108514,0.084958 
0.503209,2.568504,0.448249,0.399088,0.148398 
0.721610,1.247910,0.770246,0.474030,0.139672 
0.562336,2.022834,1.152121,0.641539,0.237978 
0.482683,1.348997,0.611758,0.402211,0.143267 
1.342719,2.284806,0.668140,0.533614,0.162219 
1.483592,1.866959,0.874946,0.675589,0.150251 
1.949011,2.063415,0.861797,0.692118,0.163605 
3.800553,1.676003,0.930254,0.538933,0.121421 
1.148957,2.125056,0.428283,0.283219,0.168505 
0.559489,2.216143,0.492812,0.250470,0.140759 
1.087814,3.258941,0.357556,0.320258,0.162426 
0.607041,1.269696,0.180551,0.199254,0.135078 
0.958794,1.329769,0.217824,0.222093,0.089541 
0.898537,3.086932,0.217564,0.114518,0.099889 
1.233598,1.769403,0.184034,0.121235,0.066613 
0.704206,4.444895,0.802363,0.471065,0.148755 
0.892490,4.589309,1.464042,0.494681,0.161627 
0.529762,0.416758,1.242568,0.483998,0.103605 
1.212601,2.548517,0.820658,0.298839,0.145335 
1.263963,3.949709,0.421247,0.264644,0.159515 
1.754500,1.746481,0.694456,0.175061,0.122124 
2.305701,3.099288,0.389818,0.251668,0.157696 
2.067564,1.940613,0.238741,0.292540,0.210234 
0.602104,1.597300,0.304328,0.239669,0.164676 
1.398014,2.309642,0.264638,0.408546,0.132717 
0.381868,1.437125,0.372269,0.268085,0.116347 
0.831305,0.488768,0.104086,0.227636,0.102985 
0.322104,1.051605,0.280190,0.161498,0.037259 
0.833357,1.618229,0.252445,0.158282,0.123232 
0.307394,2.791452,0.582561,0.288083,0.102087 
0.259212,1.691104,0.864328,0.392596,0.251697 
0.359370,1.335411,0.705358,0.665923,0.108758 
1.048175,4.235241,1.082172,0.544884,0.126421 
1.857834,3.162640,0.432478,0.387600,0.124678 
1.377889,4.320936,1.092987,0.665553,0.128769 
2.446290,2.518353,0.455856,0.301768,0.092452 
12.130218,3.206504,1.476484,0.441834,0.213562 
13.460242,3.118057,1.146622,0.273720,0.155636 
4.582584,1.611333,0.717673,0.455764,0.153462 
3.633886,1.349988,0.616635,0.231118,0.117033 
0.456004,0.527825,0.095615,0.165359,0.095549 
0.375714,0.817559,0.160807,0.096714,0.069175 
0.418249,0.561418,0.351306,0.150053,0.085769 
1.035392,2.804065,0.794203,0.267771,0.192041 
0.929191,3.652786,0.903622,0.297003,0.192445 
0.415571,3.389771,0.782008,0.322340,0.109171 
3.371388,4.607092,1.209708,0.385344,0.218515 
3.354389,3.331948,0.946599,0.415722,0.209477 
9.145686,3.858098,1.309838,0.249380,0.218423 
9.302160,2.581681,0.862720,0.403691,0.191520 
1.088137,0.581740,0.556585,0.435978,0.123503 
0.468538,0.380454,0.330924,0.359050,0.094458 
0.983433,0.636612,0.698949,0.422302,0.120443 
0.395885,0.289848,0.201372,0.170958,0.054903 
0.419909,0.355911,0.333376,0.244904,0.162203 
0.374732,0.258490,0.175093,0.102386,0.068242 
0.446868,0.628895,0.630393,0.076681,0.104114 
0.921295,0.737430,0.803952,0.272822,0.139391 
0.363846,0.863984,1.127423,0.463960,0.167146 
0.286917,0.534299,0.818908,0.313708,0.101389 
0.463455,0.898167,1.224172,0.373230,0.178880 
0.782116,0.548117,0.502352,0.390938,0.131239 
0.397367,0.630927,1.042325,0.474636,0.151171 
1.353489,0.438811,0.759321,0.399204,0.111930 
1.407114,0.401566,0.371530,0.218552,0.128611 
0.951691,0.308103,0.346506,0.156767,0.084291 
0.769614,0.780179,0.435233,0.215562,0.108427 
0.750627,0.228103,0.249748,0.209576,0.113955 
0.414964,0.177640,0.221786,0.322821,0.159811 
0.549500,0.269483,0.369153,0.104155,0.066975 
0.532576,0.538709,0.404921,0.059171,0.104663 
0.917323,1.472312,2.032471,0.169299,0.119338 
1.255043,1.717851,1.521770,0.252265,0.232206 
1.093963,0.833873,1.043618,0.286594,0.132433 
1.030684,1.266654,0.986328,0.312639,0.104698 
0.927653,0.682889,0.693224,0.279654,0.170212 
1.512717,1.026754,0.758477,0.386189,0.169852 
1.339087,0.591080,0.821453,0.259431,0.104791 
6.827244,4.600850,1.235458,0.182343,0.124459 
6.382340,3.490614,0.825365,0.201898,0.151843 
3.356753,2.762199,0.588134,0.215901,0.157499 
1.858416,2.096643,0.571856,0.099961,0.100456 
0.572467,0.859716,0.139991,0.114552,0.099602 
0.471124,2.402441,0.199721,0.164572,0.073633 
0.635017,2.382845,0.471271,0.085775,0.115088 
1.106078,4.426985,1.861350,0.333167,0.188788 
1.509462,7.263043,1.738441,0.332892,0.297212 
0.575637,1.900192,0.873932,0.274356,0.113184 
1.792894,3.475272,1.328170,0.229137,0.163168 
3.224118,2.921167,0.757126,0.191673,0.128188 
3.150936,4.510184,1.318992,0.339160,0.169021 
5.906166,3.919729,1.043471,0.165834,0.139816 
1.531675,1.203750,0.749790,0.452355,0.094413 
0.973855,1.815611,1.133999,0.421571,0.119063 
0.901250,2.328765,0.602648,0.365207,0.142061 
0.449231,1.487940,0.560210,0.273293,0.103460 
0.492815,1.236181,0.222863,0.268470,0.102671 
0.383778,3.065558,0.416032,0.150387,0.097308 
0.651167,2.053217,0.795026,0.190407,0.077688 
1.132241,4.516128,0.502122,0.576710,0.110499 
1.173116,4.843325,1.113143,0.591387,0.237233 
0.994883,1.229533,0.367123,0.420869,0.113541 
1.446598,0.747765,1.224187,0.268450,0.114335 
1.458616,1.796035,1.047874,0.453389,0.152822 
1.144487,0.441200,1.034528,0.313002,0.128773 
3.104027,1.669058,1.022970,0.303441,0.107986 
